Started at            : 18/10/2016 11:28:33 AM
****************************************************************************************

Started at            : 18/10/2016 11:36:43 AM
****************************************************************************************

DAL SP name           : spOTIF_Reports
DAL Param Values      : 0) @Action - OTIF_MasterVendorReportNewMeasure
DAL Param Values      : 1) @SelectedCountryIDs - 
DAL Param Values      : 2) @SelectedSiteIDs - 
DAL Param Values      : 3) @SelectedStockPlannerIDs - 
DAL Param Values      : 4) @SelectedVendorIDs - 
DAL Param Values      : 5) @OfficeDepotSKU - 
DAL Param Values      : 6) @SelectedPurchaseOrders - 
DAL Param Values      : 7) @SelectedItemClassification - 
DAL Param Values      : 8) @SelectedAPIDs - 
DAL Param Values      : 9) @VendorNumber - 
DAL Param Values      : 10) @VendorName - 
DAL Param Values      : 11) @DateTo - 8/10/2016 8:17:11 PM
DAL Param Values      : 12) @DateFrom - 1/1/2016 12:00:00 AM
DAL Param Values      : 13) @PurchaseOrderDue - 1
DAL Param Values      : 14) @PurchaseOrderReceived - 0
DAL Param Values      : 15) @RMSCategoryIDs - 
DAL Param Values      : 16) @SkugroupingID - 

