Started at            : 10/31/2014 6:17:51 PM
****************************************************************************************

Started at            : 10/31/2014 6:22:33 PM
****************************************************************************************

Started at            : 10/31/2014 6:28:19 PM
****************************************************************************************

DAL SP name           : spOTIF_Reports
DAL Param Values      : 0) @Action - OTIF_ODLineLevelDetailedReport
DAL Param Values      : 1) @SelectedCountryIDs - 
DAL Param Values      : 2) @SelectedSiteIDs - 
DAL Param Values      : 3) @SelectedStockPlannerIDs - 
DAL Param Values      : 4) @SelectedVendorIDs - 1
DAL Param Values      : 5) @OfficeDepotSKU - 
DAL Param Values      : 6) @SelectedPurchaseOrders - 
DAL Param Values      : 7) @SelectedItemClassification - 
DAL Param Values      : 8) @SelectedAPIDs - 
DAL Param Values      : 9) @VendorNumber - 
DAL Param Values      : 10) @VendorName - 
DAL Param Values      : 11) @DateTo - 9/30/2014 12:00:00 AM
DAL Param Values      : 12) @DateFrom - 9/1/2014 12:00:00 AM
DAL Param Values      : 13) @PurchaseOrderDue - 1
DAL Param Values      : 14) @PurchaseOrderReceived - 0

Vendor ID             : Netherlands_001
Record count          : 12
Successfully Generated at - 10/31/2014 6:30:33 PM
****************************************************************************************

DAL SP name           : spOTIF_Reports
DAL Param Values      : 0) @Action - OTIF_ODLineLevelDetailedReport
DAL Param Values      : 1) @SelectedCountryIDs - 
DAL Param Values      : 2) @SelectedSiteIDs - 
DAL Param Values      : 3) @SelectedStockPlannerIDs - 
DAL Param Values      : 4) @SelectedVendorIDs - 2
DAL Param Values      : 5) @OfficeDepotSKU - 
DAL Param Values      : 6) @SelectedPurchaseOrders - 
DAL Param Values      : 7) @SelectedItemClassification - 
DAL Param Values      : 8) @SelectedAPIDs - 
DAL Param Values      : 9) @VendorNumber - 
DAL Param Values      : 10) @VendorName - 
DAL Param Values      : 11) @DateTo - 9/30/2014 12:00:00 AM
DAL Param Values      : 12) @DateFrom - 9/1/2014 12:00:00 AM
DAL Param Values      : 13) @PurchaseOrderDue - 1
DAL Param Values      : 14) @PurchaseOrderReceived - 0

Vendor ID             : Netherlands_002
Record count          : 0
Successfully Generated at - 10/31/2014 6:30:56 PM
****************************************************************************************

DAL SP name           : spOTIF_Reports
DAL Param Values      : 0) @Action - OTIF_ODLineLevelDetailedReport
DAL Param Values      : 1) @SelectedCountryIDs - 
DAL Param Values      : 2) @SelectedSiteIDs - 
DAL Param Values      : 3) @SelectedStockPlannerIDs - 
DAL Param Values      : 4) @SelectedVendorIDs - 3
DAL Param Values      : 5) @OfficeDepotSKU - 
DAL Param Values      : 6) @SelectedPurchaseOrders - 
DAL Param Values      : 7) @SelectedItemClassification - 
DAL Param Values      : 8) @SelectedAPIDs - 
DAL Param Values      : 9) @VendorNumber - 
DAL Param Values      : 10) @VendorName - 
DAL Param Values      : 11) @DateTo - 9/30/2014 12:00:00 AM
DAL Param Values      : 12) @DateFrom - 9/1/2014 12:00:00 AM
DAL Param Values      : 13) @PurchaseOrderDue - 1
DAL Param Values      : 14) @PurchaseOrderReceived - 0

Vendor ID             : Netherlands_003
Record count          : 0
Successfully Generated at - 10/31/2014 6:30:57 PM
****************************************************************************************

DAL SP name           : spOTIF_Reports
DAL Param Values      : 0) @Action - OTIF_ODLineLevelDetailedReport
DAL Param Values      : 1) @SelectedCountryIDs - 
DAL Param Values      : 2) @SelectedSiteIDs - 
DAL Param Values      : 3) @SelectedStockPlannerIDs - 
DAL Param Values      : 4) @SelectedVendorIDs - 4
DAL Param Values      : 5) @OfficeDepotSKU - 
DAL Param Values      : 6) @SelectedPurchaseOrders - 
DAL Param Values      : 7) @SelectedItemClassification - 
DAL Param Values      : 8) @SelectedAPIDs - 
DAL Param Values      : 9) @VendorNumber - 
DAL Param Values      : 10) @VendorName - 
DAL Param Values      : 11) @DateTo - 9/30/2014 12:00:00 AM
DAL Param Values      : 12) @DateFrom - 9/1/2014 12:00:00 AM
DAL Param Values      : 13) @PurchaseOrderDue - 1
DAL Param Values      : 14) @PurchaseOrderReceived - 0

Vendor ID             : Netherlands_004
Record count          : 2
Successfully Generated at - 10/31/2014 6:30:59 PM
****************************************************************************************

DAL SP name           : spOTIF_Reports
DAL Param Values      : 0) @Action - OTIF_ODLineLevelDetailedReport
DAL Param Values      : 1) @SelectedCountryIDs - 
DAL Param Values      : 2) @SelectedSiteIDs - 
DAL Param Values      : 3) @SelectedStockPlannerIDs - 
DAL Param Values      : 4) @SelectedVendorIDs - 5
DAL Param Values      : 5) @OfficeDepotSKU - 
DAL Param Values      : 6) @SelectedPurchaseOrders - 
DAL Param Values      : 7) @SelectedItemClassification - 
DAL Param Values      : 8) @SelectedAPIDs - 
DAL Param Values      : 9) @VendorNumber - 
DAL Param Values      : 10) @VendorName - 
DAL Param Values      : 11) @DateTo - 9/30/2014 12:00:00 AM
DAL Param Values      : 12) @DateFrom - 9/1/2014 12:00:00 AM
DAL Param Values      : 13) @PurchaseOrderDue - 1
DAL Param Values      : 14) @PurchaseOrderReceived - 0

Vendor ID             : Netherlands_005
Record count          : 0
Successfully Generated at - 10/31/2014 6:31:00 PM
****************************************************************************************

DAL SP name           : spOTIF_Reports
DAL Param Values      : 0) @Action - OTIF_ODLineLevelDetailedReport
DAL Param Values      : 1) @SelectedCountryIDs - 
DAL Param Values      : 2) @SelectedSiteIDs - 
DAL Param Values      : 3) @SelectedStockPlannerIDs - 
DAL Param Values      : 4) @SelectedVendorIDs - 6
DAL Param Values      : 5) @OfficeDepotSKU - 
DAL Param Values      : 6) @SelectedPurchaseOrders - 
DAL Param Values      : 7) @SelectedItemClassification - 
DAL Param Values      : 8) @SelectedAPIDs - 
DAL Param Values      : 9) @VendorNumber - 
DAL Param Values      : 10) @VendorName - 
DAL Param Values      : 11) @DateTo - 9/30/2014 12:00:00 AM
DAL Param Values      : 12) @DateFrom - 9/1/2014 12:00:00 AM
DAL Param Values      : 13) @PurchaseOrderDue - 1
DAL Param Values      : 14) @PurchaseOrderReceived - 0

Vendor ID             : Netherlands_006
Record count          : 0
Successfully Generated at - 10/31/2014 6:31:01 PM
****************************************************************************************

DAL SP name           : spOTIF_Reports
DAL Param Values      : 0) @Action - OTIF_ODLineLevelDetailedReport
DAL Param Values      : 1) @SelectedCountryIDs - 
DAL Param Values      : 2) @SelectedSiteIDs - 
DAL Param Values      : 3) @SelectedStockPlannerIDs - 
DAL Param Values      : 4) @SelectedVendorIDs - 7
DAL Param Values      : 5) @OfficeDepotSKU - 
DAL Param Values      : 6) @SelectedPurchaseOrders - 
DAL Param Values      : 7) @SelectedItemClassification - 
DAL Param Values      : 8) @SelectedAPIDs - 
DAL Param Values      : 9) @VendorNumber - 
DAL Param Values      : 10) @VendorName - 
DAL Param Values      : 11) @DateTo - 9/30/2014 12:00:00 AM
DAL Param Values      : 12) @DateFrom - 9/1/2014 12:00:00 AM
DAL Param Values      : 13) @PurchaseOrderDue - 1
DAL Param Values      : 14) @PurchaseOrderReceived - 0

Vendor ID             : Netherlands_007
Record count          : 0
Successfully Generated at - 10/31/2014 6:31:03 PM
****************************************************************************************

DAL SP name           : spOTIF_Reports
DAL Param Values      : 0) @Action - OTIF_ODLineLevelDetailedReport
DAL Param Values      : 1) @SelectedCountryIDs - 
DAL Param Values      : 2) @SelectedSiteIDs - 
DAL Param Values      : 3) @SelectedStockPlannerIDs - 
DAL Param Values      : 4) @SelectedVendorIDs - 8
DAL Param Values      : 5) @OfficeDepotSKU - 
DAL Param Values      : 6) @SelectedPurchaseOrders - 
DAL Param Values      : 7) @SelectedItemClassification - 
DAL Param Values      : 8) @SelectedAPIDs - 
DAL Param Values      : 9) @VendorNumber - 
DAL Param Values      : 10) @VendorName - 
DAL Param Values      : 11) @DateTo - 9/30/2014 12:00:00 AM
DAL Param Values      : 12) @DateFrom - 9/1/2014 12:00:00 AM
DAL Param Values      : 13) @PurchaseOrderDue - 1
DAL Param Values      : 14) @PurchaseOrderReceived - 0

Vendor ID             : Netherlands_008
Record count          : 0
Successfully Generated at - 10/31/2014 6:31:04 PM
****************************************************************************************

DAL SP name           : spOTIF_Reports
DAL Param Values      : 0) @Action - OTIF_ODLineLevelDetailedReport
DAL Param Values      : 1) @SelectedCountryIDs - 
DAL Param Values      : 2) @SelectedSiteIDs - 
DAL Param Values      : 3) @SelectedStockPlannerIDs - 
DAL Param Values      : 4) @SelectedVendorIDs - 9
DAL Param Values      : 5) @OfficeDepotSKU - 
DAL Param Values      : 6) @SelectedPurchaseOrders - 
DAL Param Values      : 7) @SelectedItemClassification - 
DAL Param Values      : 8) @SelectedAPIDs - 
DAL Param Values      : 9) @VendorNumber - 
DAL Param Values      : 10) @VendorName - 
DAL Param Values      : 11) @DateTo - 9/30/2014 12:00:00 AM
DAL Param Values      : 12) @DateFrom - 9/1/2014 12:00:00 AM
DAL Param Values      : 13) @PurchaseOrderDue - 1
DAL Param Values      : 14) @PurchaseOrderReceived - 0

Vendor ID             : Netherlands_009
Record count          : 0
Successfully Generated at - 10/31/2014 6:31:06 PM
****************************************************************************************

DAL SP name           : spOTIF_Reports
DAL Param Values      : 0) @Action - OTIF_ODLineLevelDetailedReport
DAL Param Values      : 1) @SelectedCountryIDs - 
DAL Param Values      : 2) @SelectedSiteIDs - 
DAL Param Values      : 3) @SelectedStockPlannerIDs - 
DAL Param Values      : 4) @SelectedVendorIDs - 10
DAL Param Values      : 5) @OfficeDepotSKU - 
DAL Param Values      : 6) @SelectedPurchaseOrders - 
DAL Param Values      : 7) @SelectedItemClassification - 
DAL Param Values      : 8) @SelectedAPIDs - 
DAL Param Values      : 9) @VendorNumber - 
DAL Param Values      : 10) @VendorName - 
DAL Param Values      : 11) @DateTo - 9/30/2014 12:00:00 AM
DAL Param Values      : 12) @DateFrom - 9/1/2014 12:00:00 AM
DAL Param Values      : 13) @PurchaseOrderDue - 1
DAL Param Values      : 14) @PurchaseOrderReceived - 0

Vendor ID             : Netherlands_010
Record count          : 0
Successfully Generated at - 10/31/2014 6:31:07 PM
****************************************************************************************

DAL SP name           : spOTIF_Reports
DAL Param Values      : 0) @Action - OTIF_MasterVendorReportNewMeasure
DAL Param Values      : 1) @SelectedCountryIDs - 
DAL Param Values      : 2) @SelectedSiteIDs - 
DAL Param Values      : 3) @SelectedStockPlannerIDs - 
DAL Param Values      : 4) @SelectedVendorIDs - 
DAL Param Values      : 5) @OfficeDepotSKU - 
DAL Param Values      : 6) @SelectedPurchaseOrders - 
DAL Param Values      : 7) @SelectedItemClassification - 
DAL Param Values      : 8) @SelectedAPIDs - 
DAL Param Values      : 9) @VendorNumber - 
DAL Param Values      : 10) @VendorName - 
DAL Param Values      : 11) @DateTo - 9/30/2014 12:00:00 AM
DAL Param Values      : 12) @DateFrom - 1/1/2014 12:00:00 AM
DAL Param Values      : 13) @PurchaseOrderDue - 1
DAL Param Values      : 14) @PurchaseOrderReceived - 0


Report generation start for 16838
****************************************************************************************


Report MasterParentVendorID Id 16838 Successfully Generated at - 10/31/2014 6:36:47 PM


Report generation start for 16844
****************************************************************************************


Report MasterParentVendorID Id 16844 Successfully Generated at - 10/31/2014 6:36:48 PM


Report generation start for 16686
****************************************************************************************


Report MasterParentVendorID Id 16686 Successfully Generated at - 10/31/2014 6:36:48 PM


Report generation start for 16690
****************************************************************************************


Report MasterParentVendorID Id 16690 Successfully Generated at - 10/31/2014 6:36:49 PM


Report generation start for 16693
****************************************************************************************


Report MasterParentVendorID Id 16693 Successfully Generated at - 10/31/2014 6:36:49 PM


Report generation start for 16788
****************************************************************************************


Report MasterParentVendorID Id 16788 Successfully Generated at - 10/31/2014 6:36:49 PM


Report generation start for 16688
****************************************************************************************


Report MasterParentVendorID Id 16688 Successfully Generated at - 10/31/2014 6:36:50 PM


Report generation start for 16845
****************************************************************************************


Report MasterParentVendorID Id 16845 Successfully Generated at - 10/31/2014 6:36:50 PM


Report generation start for 16685
****************************************************************************************


Report MasterParentVendorID Id 16685 Successfully Generated at - 10/31/2014 6:36:51 PM

Ended at              : 10/31/2014 6:37:05 PM
****************************************************************************************

Started at            : 10/31/2014 6:38:48 PM
****************************************************************************************

Started at            : 10/31/2014 6:43:38 PM
****************************************************************************************

DAL SP name           : spOTIF_Reports
DAL Param Values      : 0) @Action - OTIF_ODLineLevelDetailedReport
DAL Param Values      : 1) @SelectedCountryIDs - 
DAL Param Values      : 2) @SelectedSiteIDs - 
DAL Param Values      : 3) @SelectedStockPlannerIDs - 
DAL Param Values      : 4) @SelectedVendorIDs - 11
DAL Param Values      : 5) @OfficeDepotSKU - 
DAL Param Values      : 6) @SelectedPurchaseOrders - 
DAL Param Values      : 7) @SelectedItemClassification - 
DAL Param Values      : 8) @SelectedAPIDs - 
DAL Param Values      : 9) @VendorNumber - 
DAL Param Values      : 10) @VendorName - 
DAL Param Values      : 11) @DateTo - 9/30/2014 12:00:00 AM
DAL Param Values      : 12) @DateFrom - 9/1/2014 12:00:00 AM
DAL Param Values      : 13) @PurchaseOrderDue - 1
DAL Param Values      : 14) @PurchaseOrderReceived - 0

Vendor ID             : Netherlands_011
Record count          : 0
Successfully Generated at - 10/31/2014 6:44:36 PM
****************************************************************************************

DAL SP name           : spOTIF_Reports
DAL Param Values      : 0) @Action - OTIF_ODLineLevelDetailedReport
DAL Param Values      : 1) @SelectedCountryIDs - 
DAL Param Values      : 2) @SelectedSiteIDs - 
DAL Param Values      : 3) @SelectedStockPlannerIDs - 
DAL Param Values      : 4) @SelectedVendorIDs - 12
DAL Param Values      : 5) @OfficeDepotSKU - 
DAL Param Values      : 6) @SelectedPurchaseOrders - 
DAL Param Values      : 7) @SelectedItemClassification - 
DAL Param Values      : 8) @SelectedAPIDs - 
DAL Param Values      : 9) @VendorNumber - 
DAL Param Values      : 10) @VendorName - 
DAL Param Values      : 11) @DateTo - 9/30/2014 12:00:00 AM
DAL Param Values      : 12) @DateFrom - 9/1/2014 12:00:00 AM
DAL Param Values      : 13) @PurchaseOrderDue - 1
DAL Param Values      : 14) @PurchaseOrderReceived - 0

Vendor ID             : Netherlands_012
Record count          : 0
Successfully Generated at - 10/31/2014 6:44:51 PM
****************************************************************************************

DAL SP name           : spOTIF_Reports
DAL Param Values      : 0) @Action - OTIF_ODLineLevelDetailedReport
DAL Param Values      : 1) @SelectedCountryIDs - 
DAL Param Values      : 2) @SelectedSiteIDs - 
DAL Param Values      : 3) @SelectedStockPlannerIDs - 
DAL Param Values      : 4) @SelectedVendorIDs - 13
DAL Param Values      : 5) @OfficeDepotSKU - 
DAL Param Values      : 6) @SelectedPurchaseOrders - 
DAL Param Values      : 7) @SelectedItemClassification - 
DAL Param Values      : 8) @SelectedAPIDs - 
DAL Param Values      : 9) @VendorNumber - 
DAL Param Values      : 10) @VendorName - 
DAL Param Values      : 11) @DateTo - 9/30/2014 12:00:00 AM
DAL Param Values      : 12) @DateFrom - 9/1/2014 12:00:00 AM
DAL Param Values      : 13) @PurchaseOrderDue - 1
DAL Param Values      : 14) @PurchaseOrderReceived - 0

Vendor ID             : Netherlands_013
Record count          : 80
Successfully Generated at - 10/31/2014 6:44:54 PM
****************************************************************************************

DAL SP name           : spOTIF_Reports
DAL Param Values      : 0) @Action - OTIF_ODLineLevelDetailedReport
DAL Param Values      : 1) @SelectedCountryIDs - 
DAL Param Values      : 2) @SelectedSiteIDs - 
DAL Param Values      : 3) @SelectedStockPlannerIDs - 
DAL Param Values      : 4) @SelectedVendorIDs - 14
DAL Param Values      : 5) @OfficeDepotSKU - 
DAL Param Values      : 6) @SelectedPurchaseOrders - 
DAL Param Values      : 7) @SelectedItemClassification - 
DAL Param Values      : 8) @SelectedAPIDs - 
DAL Param Values      : 9) @VendorNumber - 
DAL Param Values      : 10) @VendorName - 
DAL Param Values      : 11) @DateTo - 9/30/2014 12:00:00 AM
DAL Param Values      : 12) @DateFrom - 9/1/2014 12:00:00 AM
DAL Param Values      : 13) @PurchaseOrderDue - 1
DAL Param Values      : 14) @PurchaseOrderReceived - 0

Vendor ID             : Netherlands_014
Record count          : 0
Successfully Generated at - 10/31/2014 6:44:56 PM
****************************************************************************************

DAL SP name           : spOTIF_Reports
DAL Param Values      : 0) @Action - OTIF_ODLineLevelDetailedReport
DAL Param Values      : 1) @SelectedCountryIDs - 
DAL Param Values      : 2) @SelectedSiteIDs - 
DAL Param Values      : 3) @SelectedStockPlannerIDs - 
DAL Param Values      : 4) @SelectedVendorIDs - 15
DAL Param Values      : 5) @OfficeDepotSKU - 
DAL Param Values      : 6) @SelectedPurchaseOrders - 
DAL Param Values      : 7) @SelectedItemClassification - 
DAL Param Values      : 8) @SelectedAPIDs - 
DAL Param Values      : 9) @VendorNumber - 
DAL Param Values      : 10) @VendorName - 
DAL Param Values      : 11) @DateTo - 9/30/2014 12:00:00 AM
DAL Param Values      : 12) @DateFrom - 9/1/2014 12:00:00 AM
DAL Param Values      : 13) @PurchaseOrderDue - 1
DAL Param Values      : 14) @PurchaseOrderReceived - 0

Vendor ID             : Netherlands_015
Record count          : 0
Successfully Generated at - 10/31/2014 6:44:57 PM
****************************************************************************************

DAL SP name           : spOTIF_Reports
DAL Param Values      : 0) @Action - OTIF_ODLineLevelDetailedReport
DAL Param Values      : 1) @SelectedCountryIDs - 
DAL Param Values      : 2) @SelectedSiteIDs - 
DAL Param Values      : 3) @SelectedStockPlannerIDs - 
DAL Param Values      : 4) @SelectedVendorIDs - 16
DAL Param Values      : 5) @OfficeDepotSKU - 
DAL Param Values      : 6) @SelectedPurchaseOrders - 
DAL Param Values      : 7) @SelectedItemClassification - 
DAL Param Values      : 8) @SelectedAPIDs - 
DAL Param Values      : 9) @VendorNumber - 
DAL Param Values      : 10) @VendorName - 
DAL Param Values      : 11) @DateTo - 9/30/2014 12:00:00 AM
DAL Param Values      : 12) @DateFrom - 9/1/2014 12:00:00 AM
DAL Param Values      : 13) @PurchaseOrderDue - 1
DAL Param Values      : 14) @PurchaseOrderReceived - 0

Vendor ID             : Netherlands_016
Record count          : 0
Successfully Generated at - 10/31/2014 6:44:58 PM
****************************************************************************************

DAL SP name           : spOTIF_Reports
DAL Param Values      : 0) @Action - OTIF_ODLineLevelDetailedReport
DAL Param Values      : 1) @SelectedCountryIDs - 
DAL Param Values      : 2) @SelectedSiteIDs - 
DAL Param Values      : 3) @SelectedStockPlannerIDs - 
DAL Param Values      : 4) @SelectedVendorIDs - 17
DAL Param Values      : 5) @OfficeDepotSKU - 
DAL Param Values      : 6) @SelectedPurchaseOrders - 
DAL Param Values      : 7) @SelectedItemClassification - 
DAL Param Values      : 8) @SelectedAPIDs - 
DAL Param Values      : 9) @VendorNumber - 
DAL Param Values      : 10) @VendorName - 
DAL Param Values      : 11) @DateTo - 9/30/2014 12:00:00 AM
DAL Param Values      : 12) @DateFrom - 9/1/2014 12:00:00 AM
DAL Param Values      : 13) @PurchaseOrderDue - 1
DAL Param Values      : 14) @PurchaseOrderReceived - 0

Vendor ID             : Netherlands_017
Record count          : 0
Successfully Generated at - 10/31/2014 6:45:00 PM
****************************************************************************************

DAL SP name           : spOTIF_Reports
DAL Param Values      : 0) @Action - OTIF_ODLineLevelDetailedReport
DAL Param Values      : 1) @SelectedCountryIDs - 
DAL Param Values      : 2) @SelectedSiteIDs - 
DAL Param Values      : 3) @SelectedStockPlannerIDs - 
DAL Param Values      : 4) @SelectedVendorIDs - 18
DAL Param Values      : 5) @OfficeDepotSKU - 
DAL Param Values      : 6) @SelectedPurchaseOrders - 
DAL Param Values      : 7) @SelectedItemClassification - 
DAL Param Values      : 8) @SelectedAPIDs - 
DAL Param Values      : 9) @VendorNumber - 
DAL Param Values      : 10) @VendorName - 
DAL Param Values      : 11) @DateTo - 9/30/2014 12:00:00 AM
DAL Param Values      : 12) @DateFrom - 9/1/2014 12:00:00 AM
DAL Param Values      : 13) @PurchaseOrderDue - 1
DAL Param Values      : 14) @PurchaseOrderReceived - 0

Vendor ID             : Netherlands_018
Record count          : 0
Successfully Generated at - 10/31/2014 6:45:01 PM
****************************************************************************************

DAL SP name           : spOTIF_Reports
DAL Param Values      : 0) @Action - OTIF_ODLineLevelDetailedReport
DAL Param Values      : 1) @SelectedCountryIDs - 
DAL Param Values      : 2) @SelectedSiteIDs - 
DAL Param Values      : 3) @SelectedStockPlannerIDs - 
DAL Param Values      : 4) @SelectedVendorIDs - 19
DAL Param Values      : 5) @OfficeDepotSKU - 
DAL Param Values      : 6) @SelectedPurchaseOrders - 
DAL Param Values      : 7) @SelectedItemClassification - 
DAL Param Values      : 8) @SelectedAPIDs - 
DAL Param Values      : 9) @VendorNumber - 
DAL Param Values      : 10) @VendorName - 
DAL Param Values      : 11) @DateTo - 9/30/2014 12:00:00 AM
DAL Param Values      : 12) @DateFrom - 9/1/2014 12:00:00 AM
DAL Param Values      : 13) @PurchaseOrderDue - 1
DAL Param Values      : 14) @PurchaseOrderReceived - 0

Vendor ID             : Netherlands_019
Record count          : 0
Successfully Generated at - 10/31/2014 6:45:03 PM
****************************************************************************************

DAL SP name           : spOTIF_Reports
DAL Param Values      : 0) @Action - OTIF_ODLineLevelDetailedReport
DAL Param Values      : 1) @SelectedCountryIDs - 
DAL Param Values      : 2) @SelectedSiteIDs - 
DAL Param Values      : 3) @SelectedStockPlannerIDs - 
DAL Param Values      : 4) @SelectedVendorIDs - 20
DAL Param Values      : 5) @OfficeDepotSKU - 
DAL Param Values      : 6) @SelectedPurchaseOrders - 
DAL Param Values      : 7) @SelectedItemClassification - 
DAL Param Values      : 8) @SelectedAPIDs - 
DAL Param Values      : 9) @VendorNumber - 
DAL Param Values      : 10) @VendorName - 
DAL Param Values      : 11) @DateTo - 9/30/2014 12:00:00 AM
DAL Param Values      : 12) @DateFrom - 9/1/2014 12:00:00 AM
DAL Param Values      : 13) @PurchaseOrderDue - 1
DAL Param Values      : 14) @PurchaseOrderReceived - 0

Vendor ID             : Netherlands_020
Record count          : 6
Successfully Generated at - 10/31/2014 6:45:04 PM
****************************************************************************************

DAL SP name           : spOTIF_Reports
DAL Param Values      : 0) @Action - OTIF_MasterVendorReportNewMeasure
DAL Param Values      : 1) @SelectedCountryIDs - 
DAL Param Values      : 2) @SelectedSiteIDs - 
DAL Param Values      : 3) @SelectedStockPlannerIDs - 
DAL Param Values      : 4) @SelectedVendorIDs - 
DAL Param Values      : 5) @OfficeDepotSKU - 
DAL Param Values      : 6) @SelectedPurchaseOrders - 
DAL Param Values      : 7) @SelectedItemClassification - 
DAL Param Values      : 8) @SelectedAPIDs - 
DAL Param Values      : 9) @VendorNumber - 
DAL Param Values      : 10) @VendorName - 
DAL Param Values      : 11) @DateTo - 9/30/2014 12:00:00 AM
DAL Param Values      : 12) @DateFrom - 1/1/2014 12:00:00 AM
DAL Param Values      : 13) @PurchaseOrderDue - 1
DAL Param Values      : 14) @PurchaseOrderReceived - 0


Report generation start for 16952
****************************************************************************************


Report MasterParentVendorID Id 16952 Successfully Generated at - 10/31/2014 6:48:21 PM


Report generation start for 16843
****************************************************************************************


Report MasterParentVendorID Id 16843 Successfully Generated at - 10/31/2014 6:48:21 PM


Report generation start for 16757
****************************************************************************************


Report MasterParentVendorID Id 16757 Successfully Generated at - 10/31/2014 6:48:21 PM


Report generation start for 17029
****************************************************************************************


Report MasterParentVendorID Id 17029 Successfully Generated at - 10/31/2014 6:48:22 PM


Report generation start for 16643
****************************************************************************************


Report MasterParentVendorID Id 16643 Successfully Generated at - 10/31/2014 6:48:22 PM


Report generation start for 16786
****************************************************************************************


Report MasterParentVendorID Id 16786 Successfully Generated at - 10/31/2014 6:48:23 PM


Report generation start for 1
****************************************************************************************


Report MasterParentVendorID Id 1 Successfully Generated at - 10/31/2014 6:48:23 PM

Ended at              : 10/31/2014 6:48:28 PM
****************************************************************************************

