Started at            : 2/11/2016 5:44:27 PM
****************************************************************************************

Ended at              : 2/11/2016 5:44:27 PM
****************************************************************************************

Started at            : 2/11/2016 5:44:46 PM
****************************************************************************************

Ended at              : 2/11/2016 5:45:15 PM
****************************************************************************************

Started at            : 2/11/2016 5:46:31 PM
****************************************************************************************

DAL SP name           : spOTIF_Reports
DAL Param Values      : 0) @Action - OTIF_ODLineLevelDetailedReport
DAL Param Values      : 1) @SelectedCountryIDs - 
DAL Param Values      : 2) @SelectedSiteIDs - 
DAL Param Values      : 3) @SelectedStockPlannerIDs - 
DAL Param Values      : 4) @SelectedVendorIDs - 12
DAL Param Values      : 5) @OfficeDepotSKU - 
DAL Param Values      : 6) @SelectedPurchaseOrders - 
DAL Param Values      : 7) @SelectedItemClassification - 
DAL Param Values      : 8) @SelectedAPIDs - 
DAL Param Values      : 9) @VendorNumber - 
DAL Param Values      : 10) @VendorName - 
DAL Param Values      : 11) @DateTo - 1/1/0001 12:00:00 AM
DAL Param Values      : 12) @DateFrom - 1/1/0001 12:00:00 AM
DAL Param Values      : 13) @PurchaseOrderDue - 1
DAL Param Values      : 14) @PurchaseOrderReceived - 0
DAL Param Values      : 15) @RMSCategoryIDs - 

Vendor ID             : Netherlands_012
Record count          : nullReport Generation Failed
****************************************************************************************
DAL SP name           : spOTIF_Reports
DAL Param Values      : 0) @Action - OTIF_ODLineLevelDetailedReport
DAL Param Values      : 1) @SelectedCountryIDs - 
DAL Param Values      : 2) @SelectedSiteIDs - 
DAL Param Values      : 3) @SelectedStockPlannerIDs - 
DAL Param Values      : 4) @SelectedVendorIDs - 13
DAL Param Values      : 5) @OfficeDepotSKU - 
DAL Param Values      : 6) @SelectedPurchaseOrders - 
DAL Param Values      : 7) @SelectedItemClassification - 
DAL Param Values      : 8) @SelectedAPIDs - 
DAL Param Values      : 9) @VendorNumber - 
DAL Param Values      : 10) @VendorName - 
DAL Param Values      : 11) @DateTo - 1/1/0001 12:00:00 AM
DAL Param Values      : 12) @DateFrom - 1/1/0001 12:00:00 AM
DAL Param Values      : 13) @PurchaseOrderDue - 1
DAL Param Values      : 14) @PurchaseOrderReceived - 0
DAL Param Values      : 15) @RMSCategoryIDs - 

Vendor ID             : Netherlands_013
Record count          : nullReport Generation Failed
****************************************************************************************
DAL SP name           : spOTIF_Reports
DAL Param Values      : 0) @Action - OTIF_ODLineLevelDetailedReport
DAL Param Values      : 1) @SelectedCountryIDs - 
DAL Param Values      : 2) @SelectedSiteIDs - 
DAL Param Values      : 3) @SelectedStockPlannerIDs - 
DAL Param Values      : 4) @SelectedVendorIDs - 14
DAL Param Values      : 5) @OfficeDepotSKU - 
DAL Param Values      : 6) @SelectedPurchaseOrders - 
DAL Param Values      : 7) @SelectedItemClassification - 
DAL Param Values      : 8) @SelectedAPIDs - 
DAL Param Values      : 9) @VendorNumber - 
DAL Param Values      : 10) @VendorName - 
DAL Param Values      : 11) @DateTo - 1/1/0001 12:00:00 AM
DAL Param Values      : 12) @DateFrom - 1/1/0001 12:00:00 AM
DAL Param Values      : 13) @PurchaseOrderDue - 1
DAL Param Values      : 14) @PurchaseOrderReceived - 0
DAL Param Values      : 15) @RMSCategoryIDs - 

Vendor ID             : Netherlands_014
Record count          : nullReport Generation Failed
****************************************************************************************
DAL SP name           : spOTIF_Reports
DAL Param Values      : 0) @Action - OTIF_ODLineLevelDetailedReport
DAL Param Values      : 1) @SelectedCountryIDs - 
DAL Param Values      : 2) @SelectedSiteIDs - 
DAL Param Values      : 3) @SelectedStockPlannerIDs - 
DAL Param Values      : 4) @SelectedVendorIDs - 15
DAL Param Values      : 5) @OfficeDepotSKU - 
DAL Param Values      : 6) @SelectedPurchaseOrders - 
DAL Param Values      : 7) @SelectedItemClassification - 
DAL Param Values      : 8) @SelectedAPIDs - 
DAL Param Values      : 9) @VendorNumber - 
DAL Param Values      : 10) @VendorName - 
DAL Param Values      : 11) @DateTo - 1/1/0001 12:00:00 AM
DAL Param Values      : 12) @DateFrom - 1/1/0001 12:00:00 AM
DAL Param Values      : 13) @PurchaseOrderDue - 1
DAL Param Values      : 14) @PurchaseOrderReceived - 0
DAL Param Values      : 15) @RMSCategoryIDs - 

Vendor ID             : Netherlands_015
Record count          : nullReport Generation Failed
****************************************************************************************
DAL SP name           : spOTIF_Reports
DAL Param Values      : 0) @Action - OTIF_ODLineLevelDetailedReport
DAL Param Values      : 1) @SelectedCountryIDs - 
DAL Param Values      : 2) @SelectedSiteIDs - 
DAL Param Values      : 3) @SelectedStockPlannerIDs - 
DAL Param Values      : 4) @SelectedVendorIDs - 16
DAL Param Values      : 5) @OfficeDepotSKU - 
DAL Param Values      : 6) @SelectedPurchaseOrders - 
DAL Param Values      : 7) @SelectedItemClassification - 
DAL Param Values      : 8) @SelectedAPIDs - 
DAL Param Values      : 9) @VendorNumber - 
DAL Param Values      : 10) @VendorName - 
DAL Param Values      : 11) @DateTo - 1/1/0001 12:00:00 AM
DAL Param Values      : 12) @DateFrom - 1/1/0001 12:00:00 AM
DAL Param Values      : 13) @PurchaseOrderDue - 1
DAL Param Values      : 14) @PurchaseOrderReceived - 0
DAL Param Values      : 15) @RMSCategoryIDs - 

Vendor ID             : Netherlands_016
Record count          : nullReport Generation Failed
****************************************************************************************
DAL SP name           : spOTIF_Reports
DAL Param Values      : 0) @Action - OTIF_ODLineLevelDetailedReport
DAL Param Values      : 1) @SelectedCountryIDs - 
DAL Param Values      : 2) @SelectedSiteIDs - 
DAL Param Values      : 3) @SelectedStockPlannerIDs - 
DAL Param Values      : 4) @SelectedVendorIDs - 17
DAL Param Values      : 5) @OfficeDepotSKU - 
DAL Param Values      : 6) @SelectedPurchaseOrders - 
DAL Param Values      : 7) @SelectedItemClassification - 
DAL Param Values      : 8) @SelectedAPIDs - 
DAL Param Values      : 9) @VendorNumber - 
DAL Param Values      : 10) @VendorName - 
DAL Param Values      : 11) @DateTo - 1/1/0001 12:00:00 AM
DAL Param Values      : 12) @DateFrom - 1/1/0001 12:00:00 AM
DAL Param Values      : 13) @PurchaseOrderDue - 1
DAL Param Values      : 14) @PurchaseOrderReceived - 0
DAL Param Values      : 15) @RMSCategoryIDs - 

Vendor ID             : Netherlands_017
Record count          : nullReport Generation Failed
****************************************************************************************
DAL SP name           : spOTIF_Reports
DAL Param Values      : 0) @Action - OTIF_ODLineLevelDetailedReport
DAL Param Values      : 1) @SelectedCountryIDs - 
DAL Param Values      : 2) @SelectedSiteIDs - 
DAL Param Values      : 3) @SelectedStockPlannerIDs - 
DAL Param Values      : 4) @SelectedVendorIDs - 18
DAL Param Values      : 5) @OfficeDepotSKU - 
DAL Param Values      : 6) @SelectedPurchaseOrders - 
DAL Param Values      : 7) @SelectedItemClassification - 
DAL Param Values      : 8) @SelectedAPIDs - 
DAL Param Values      : 9) @VendorNumber - 
DAL Param Values      : 10) @VendorName - 
DAL Param Values      : 11) @DateTo - 1/1/0001 12:00:00 AM
DAL Param Values      : 12) @DateFrom - 1/1/0001 12:00:00 AM
DAL Param Values      : 13) @PurchaseOrderDue - 1
DAL Param Values      : 14) @PurchaseOrderReceived - 0
DAL Param Values      : 15) @RMSCategoryIDs - 

Vendor ID             : Netherlands_018
Record count          : nullReport Generation Failed
****************************************************************************************
DAL SP name           : spOTIF_Reports
DAL Param Values      : 0) @Action - OTIF_ODLineLevelDetailedReport
DAL Param Values      : 1) @SelectedCountryIDs - 
DAL Param Values      : 2) @SelectedSiteIDs - 
DAL Param Values      : 3) @SelectedStockPlannerIDs - 
DAL Param Values      : 4) @SelectedVendorIDs - 19
DAL Param Values      : 5) @OfficeDepotSKU - 
DAL Param Values      : 6) @SelectedPurchaseOrders - 
DAL Param Values      : 7) @SelectedItemClassification - 
DAL Param Values      : 8) @SelectedAPIDs - 
DAL Param Values      : 9) @VendorNumber - 
DAL Param Values      : 10) @VendorName - 
DAL Param Values      : 11) @DateTo - 1/1/0001 12:00:00 AM
DAL Param Values      : 12) @DateFrom - 1/1/0001 12:00:00 AM
DAL Param Values      : 13) @PurchaseOrderDue - 1
DAL Param Values      : 14) @PurchaseOrderReceived - 0
DAL Param Values      : 15) @RMSCategoryIDs - 

Vendor ID             : Netherlands_019
Record count          : nullReport Generation Failed
****************************************************************************************
DAL SP name           : spOTIF_Reports
DAL Param Values      : 0) @Action - OTIF_ODLineLevelDetailedReport
DAL Param Values      : 1) @SelectedCountryIDs - 
DAL Param Values      : 2) @SelectedSiteIDs - 
DAL Param Values      : 3) @SelectedStockPlannerIDs - 
DAL Param Values      : 4) @SelectedVendorIDs - 20
DAL Param Values      : 5) @OfficeDepotSKU - 
DAL Param Values      : 6) @SelectedPurchaseOrders - 
DAL Param Values      : 7) @SelectedItemClassification - 
DAL Param Values      : 8) @SelectedAPIDs - 
DAL Param Values      : 9) @VendorNumber - 
DAL Param Values      : 10) @VendorName - 
DAL Param Values      : 11) @DateTo - 1/1/0001 12:00:00 AM
DAL Param Values      : 12) @DateFrom - 1/1/0001 12:00:00 AM
DAL Param Values      : 13) @PurchaseOrderDue - 1
DAL Param Values      : 14) @PurchaseOrderReceived - 0
DAL Param Values      : 15) @RMSCategoryIDs - 

Vendor ID             : Netherlands_020
Record count          : nullReport Generation Failed
****************************************************************************************
DAL SP name           : spOTIF_Reports
DAL Param Values      : 0) @Action - OTIF_ODLineLevelDetailedReport
DAL Param Values      : 1) @SelectedCountryIDs - 
DAL Param Values      : 2) @SelectedSiteIDs - 
DAL Param Values      : 3) @SelectedStockPlannerIDs - 
DAL Param Values      : 4) @SelectedVendorIDs - 21
DAL Param Values      : 5) @OfficeDepotSKU - 
DAL Param Values      : 6) @SelectedPurchaseOrders - 
DAL Param Values      : 7) @SelectedItemClassification - 
DAL Param Values      : 8) @SelectedAPIDs - 
DAL Param Values      : 9) @VendorNumber - 
DAL Param Values      : 10) @VendorName - 
DAL Param Values      : 11) @DateTo - 1/1/0001 12:00:00 AM
DAL Param Values      : 12) @DateFrom - 1/1/0001 12:00:00 AM
DAL Param Values      : 13) @PurchaseOrderDue - 1
DAL Param Values      : 14) @PurchaseOrderReceived - 0
DAL Param Values      : 15) @RMSCategoryIDs - 

Vendor ID             : Netherlands_021
Record count          : nullReport Generation Failed
****************************************************************************************
Ended at              : 2/11/2016 5:49:39 PM
****************************************************************************************

Started at            : 2/11/2016 6:08:19 PM
****************************************************************************************

Ended at              : 2/11/2016 6:08:58 PM
****************************************************************************************

Started at            : 2/11/2016 6:09:31 PM
****************************************************************************************

Started at            : 2/11/2016 6:11:11 PM
****************************************************************************************

Started at            : 2/11/2016 6:13:43 PM
****************************************************************************************

Ended at              : 2/11/2016 6:14:50 PM
****************************************************************************************

Started at            : 2/11/2016 6:18:44 PM
****************************************************************************************

DAL SP name           : spOTIF_Reports
DAL Param Values      : 0) @Action - OTIF_ODLineLevelDetailedReport
DAL Param Values      : 1) @SelectedCountryIDs - 
DAL Param Values      : 2) @SelectedSiteIDs - 
DAL Param Values      : 3) @SelectedStockPlannerIDs - 
DAL Param Values      : 4) @SelectedVendorIDs - 2113
DAL Param Values      : 5) @OfficeDepotSKU - 
DAL Param Values      : 6) @SelectedPurchaseOrders - 
DAL Param Values      : 7) @SelectedItemClassification - 
DAL Param Values      : 8) @SelectedAPIDs - 
DAL Param Values      : 9) @VendorNumber - 
DAL Param Values      : 10) @VendorName - 
DAL Param Values      : 11) @DateTo - 1/31/2016 12:00:00 AM
DAL Param Values      : 12) @DateFrom - 1/1/2016 12:00:00 AM
DAL Param Values      : 13) @PurchaseOrderDue - 1
DAL Param Values      : 14) @PurchaseOrderReceived - 0
DAL Param Values      : 15) @RMSCategoryIDs - 

Vendor ID             : UKandIRE_519
Record count          : 17
Successfully Generated at - 2/11/2016 6:20:15 PM
****************************************************************************************

Ended at              : 2/11/2016 6:20:28 PM
****************************************************************************************

