Viking_Sku_no|OD_SKU_Number|Vendor_Prod_code|Warehouse|PO_number|Qty_receipted|Other|Date|Country|ORGOrdDate
1000714|1000714|C000352|L|154716|192||22/10/2021|UKandIre|11/10/2021
1004063|1004063|208781|L|154379|33||22/10/2021|UKandIre|28/09/2021
1012530|1012530|10231170|L|154691|9||22/10/2021|UKandIre|08/10/2021
1014526|1014526|0511106S|L|154167|120||22/10/2021|UKandIre|22/09/2021
1014527|1014527|0511107S|L|153933|380||22/10/2021|UKandIre|15/09/2021
1015418|1015418|17-21-27|L|154788|4||22/10/2021|UKandIre|12/10/2021
1023995|1023995|10120|L|154836|10||22/10/2021|UKandIre|13/10/2021
1024486|1024486|S10196890|L|153131|1||22/10/2021|UKandIre|23/08/2021
1024639|1024639|221662|L|154568|93||22/10/2021|UKandIre|05/10/2021
1025177|1025177|181914|L|154379|5||22/10/2021|UKandIre|28/09/2021
1025461|1025461|15785|L|153041|160||22/10/2021|UKandIre|18/08/2021
1027513|1027513|055288434851|L|154788|10||22/10/2021|UKandIre|12/10/2021
1027517|1027517|055288431898|L|154788|120||22/10/2021|UKandIre|12/10/2021
1034851|1034851|83319|L|154716|60||22/10/2021|UKandIre|11/10/2021
1041184|1041184|241957|L|153885|8||22/10/2021|UKandIre|14/09/2021
1042693|1042693|C001892|L|154716|240||22/10/2021|UKandIre|11/10/2021
1043799|1043799|BX-V5-B-FF|L|154893|108||22/10/2021|UKandIre|14/10/2021
1043942|1043942|BX-V5-R-FF|L|154893|48||22/10/2021|UKandIre|14/10/2021
1044157|1044157|BX-V7-B-FF|L|154893|96||22/10/2021|UKandIre|14/10/2021
1051780|1051780|241959|L|154379|1||22/10/2021|UKandIre|28/09/2021
1052950|1052950|BL-G2-7-R-FF|L|154893|72||22/10/2021|UKandIre|14/10/2021
1053494|1053494|S10270518|L|153131|8||22/10/2021|UKandIre|23/08/2021
1065429|1065429|C003049|L|154716|36||22/10/2021|UKandIre|11/10/2021
1071669|1071669|15839|L|154836|13||22/10/2021|UKandIre|13/10/2021
1071670|1071670|15440|L|154836|5||22/10/2021|UKandIre|13/10/2021
1071677|1071677|10070|L|154836|10||22/10/2021|UKandIre|13/10/2021
1076294|1076294|C003345|L|154716|60||22/10/2021|UKandIre|11/10/2021
1076297|1076297|C003348|L|154716|120||22/10/2021|UKandIre|11/10/2021
1077141|1077141|230106|L|154568|100||22/10/2021|UKandIre|05/10/2021
1088383|1088383|1276|L|154755|79||22/10/2021|UKandIre|12/10/2021
1090598|1090598|49168|L|154789|5||22/10/2021|UKandIre|12/10/2021
1091550|1091550|290135|L|154649|20||22/10/2021|UKandIre|07/10/2021
1097381|1097381|248292|L|154132|30||22/10/2021|UKandIre|21/09/2021
1097381|1097381|248292|L|154379|60||22/10/2021|UKandIre|28/09/2021
1097383|1097383|248280|L|154568|33||22/10/2021|UKandIre|05/10/2021
1101981|1101981|17.5CCB-PK3|L|154532|54||22/10/2021|UKandIre|05/10/2021
1101982|1101982|33.5CCB-PK3|L|154532|48||22/10/2021|UKandIre|05/10/2021
1101983|1101983|43CCB-PK3|L|154532|45||22/10/2021|UKandIre|05/10/2021
1101986|1101986|50BKCB|L|154532|20||22/10/2021|UKandIre|05/10/2021
1111807|1111807|90775|L|154716|1920||22/10/2021|UKandIre|11/10/2021
1116590|1116590|1502|L|154755|140||22/10/2021|UKandIre|12/10/2021
1132381|1132381|1099|L|154755|7||22/10/2021|UKandIre|12/10/2021
1132382|1132382|0695|L|155019|10||22/10/2021|UKandIre|19/10/2021
1139258|1139258|HV1G3600DS|L|154184|224||22/10/2021|UKandIre|23/09/2021
1143888|1143888|3521483|L|154379|35||22/10/2021|UKandIre|28/09/2021
1143892|1143892|248751|L|154568|10||22/10/2021|UKandIre|05/10/2021
1146983|1146983|1482|L|154755|48||22/10/2021|UKandIre|12/10/2021
1149437|1149437|1039|L|154755|100||22/10/2021|UKandIre|12/10/2021
1149947|1149947|C003467|L|154716|102||22/10/2021|UKandIre|11/10/2021
1151289|1151289|259580|L|154379|35||22/10/2021|UKandIre|28/09/2021
1151293|1151293|259577|L|154379|32||22/10/2021|UKandIre|28/09/2021
1151295|1151295|259588|L|154379|8||22/10/2021|UKandIre|28/09/2021
1151295|1151295|259588|L|154568|5||22/10/2021|UKandIre|05/10/2021
1152768|1152768|C003261|L|154716|81||22/10/2021|UKandIre|11/10/2021
1156432|1156432|BBS2|L|155084|128||22/10/2021|UKandIre|21/10/2021
1159118|1159118|800-292-1120|L|154013|160||22/10/2021|UKandIre|17/09/2021
1159214|1159214|800-122-0020|L|153765|160||22/10/2021|UKandIre|10/09/2021
1159214|1159214|800-122-0020|L|154013|160||22/10/2021|UKandIre|17/09/2021
1160527|1160527|49071|L|154789|20||22/10/2021|UKandIre|12/10/2021
1165024|1165024|259704|L|154379|6||22/10/2021|UKandIre|28/09/2021
1165026|1165026|259705|L|154132|4||22/10/2021|UKandIre|21/09/2021
1165028|1165028|259700|L|154379|7||22/10/2021|UKandIre|28/09/2021
1166856|1166856|H1VWH36DS|L|154184|192||22/10/2021|UKandIre|23/09/2021
1173403|1173403|313191057197|L|154893|30||22/10/2021|UKandIre|14/10/2021
1175959|1175959|1551|L|155019|3||22/10/2021|UKandIre|19/10/2021
1192268|1192268|C001850|L|154716|600||22/10/2021|UKandIre|11/10/2021
1251979|1251979|ODP075A4|L|153142|720||22/10/2021|UKandIre|24/08/2021
1296454|1296454|0703233|L|154678|68||22/10/2021|UKandIre|08/10/2021
1405940|1405940|53401|L|154789|18||22/10/2021|UKandIre|12/10/2021
1523055|1523055|LD01-58-3-S|L|151596|480||22/10/2021|UKandIre|01/07/2021
1523520|1523520|LD01-508-1-B|L|151596|1212||22/10/2021|UKandIre|01/07/2021
1523789|1523789|LD01-508-1-S|L|151596|768||22/10/2021|UKandIre|01/07/2021
1603894|1603894|AA934D-BE1-1|L|151594|432||22/10/2021|UKandIre|01/07/2021
1766027|1766027|2666327|L|154818|96||22/10/2021|UKandIre|13/10/2021
1886427|1886427|YL0019|L|151598|2592||22/10/2021|UKandIre|01/07/2021
2023248|2023248|1633-AB9|L|153940|4||22/10/2021|UKandIre|15/09/2021
2029737|2029737|6.904-315.0|L|154903|60||22/10/2021|UKandIre|15/10/2021
2079645|2079645|S50010240|L|151597|210||22/10/2021|UKandIre|01/07/2021
2190121|2190121|0403332|L|154606|14||22/10/2021|UKandIre|06/10/2021
2452180|2452180|3788577|L|151588|1152||22/10/2021|UKandIre|01/07/2021
2594112|2594112|S50010160|L|151597|1500||22/10/2021|UKandIre|01/07/2021
2706214|2706214|AOC4/33|L|153940|172||22/10/2021|UKandIre|15/09/2021
2799898|2799898|C2B157FDS|L|154184|490||22/10/2021|UKandIre|23/09/2021
2839805|2839805|2666532|L|154719|100||22/10/2021|UKandIre|11/10/2021
2991425|2991425|A141EEV2|L|154855|120||22/10/2021|UKandIre|14/10/2021
3012334|3012334|4280409|L|151588|1260||22/10/2021|UKandIre|01/07/2021
3099214|3099214|800-222-1108|L|154013|40||22/10/2021|UKandIre|17/09/2021
3226171|3226171|3226171|L|151588|2928||22/10/2021|UKandIre|01/07/2021
3227514|3227514|3227514|L|151588|336||22/10/2021|UKandIre|01/07/2021
3284107|3284107|800-277-0002|L|153765|250||22/10/2021|UKandIre|10/09/2021
3350480|3350480|3350480|L|151592|1560||22/10/2021|UKandIre|01/07/2021
3352466|3352466|3352466|L|151592|720||22/10/2021|UKandIre|01/07/2021
3357645|3357645|3357645|L|155135|4200||22/10/2021|UKandIre|22/10/2021
3400487|3400487|2509176|L|150272|24||22/10/2021|UKandIre|26/05/2021
3400487|3400487|2509176|L|150402|786||22/10/2021|UKandIre|31/05/2021
3400487|3400487|2509176|L|150420|230||22/10/2021|UKandIre|31/05/2021
3626728|3626728|1102122|L|154742|288||22/10/2021|UKandIre|12/10/2021
3669823|3669823|93237|L|154716|1600||22/10/2021|UKandIre|11/10/2021
3760534|3760534|800-111-0003|L|153765|1800||22/10/2021|UKandIre|10/09/2021
3767043|3767043|SH15|L|155084|30||22/10/2021|UKandIre|21/10/2021
3840398|3840398|412056|L|154068|440||22/10/2021|UKandIre|21/09/2021
3956056|3956056|FF071 SAV|L|154401|85||22/10/2021|UKandIre|29/09/2021
4051498|4051498|XS17006|L|151593|912||22/10/2021|UKandIre|01/07/2021
4187701|4187701|055288436060|L|154788|30||22/10/2021|UKandIre|12/10/2021
4194387|4194387|NUN0800305 R|L|153142|7680||22/10/2021|UKandIre|24/08/2021
4317075|4317075|40507|L|152701|4800||22/10/2021|UKandIre|06/08/2021
4502753|4502753|SDCZ73064GG4|L|154379|84||22/10/2021|UKandIre|28/09/2021
4751829|4751829|43438|L|154789|32||22/10/2021|UKandIre|12/10/2021
4785353|4785353|S50010200|L|151597|240||22/10/2021|UKandIre|01/07/2021
4843923|4843923|AA934D-ASS1-|L|151594|576||22/10/2021|UKandIre|01/07/2021
4856571|4856571|625012|L|154225|11760||22/10/2021|UKandIre|23/09/2021
4856598|4856598|625009|L|154225|3120||22/10/2021|UKandIre|23/09/2021
4856742|4856742|625253|L|154225|840||22/10/2021|UKandIre|23/09/2021
4857678|4857678|QHOD0020|L|154650|144||22/10/2021|UKandIre|07/10/2021
4857714|4857714|QHOD0002|L|154650|84||22/10/2021|UKandIre|07/10/2021
4857804|4857804|QHOD0041|L|154650|144||22/10/2021|UKandIre|07/10/2021
4859721|4859721|0703116|L|153850|40||22/10/2021|UKandIre|14/09/2021
4989447|4989447|0703117|L|153850|100||22/10/2021|UKandIre|14/09/2021
4989528|4989528|0703120|L|154633|150||22/10/2021|UKandIre|07/10/2021
4989573|4989573|0703121|L|154742|150||22/10/2021|UKandIre|12/10/2021
4989672|4989672|0703113|L|154633|180||22/10/2021|UKandIre|07/10/2021
4LC|0182705|4LC|L|154532|288||22/10/2021|UKandIre|05/10/2021
5014422|5014422|SAN70004|L|154379|200||22/10/2021|UKandIre|28/09/2021
5048190|5048190|43489|L|154789|8||22/10/2021|UKandIre|12/10/2021
5091291|5091291|43411|L|154789|40||22/10/2021|UKandIre|12/10/2021
5311602|5311602|NICED080X503|L|154277|10080||22/10/2021|UKandIre|27/09/2021
5311809|5311809|SDSDB032GB35|L|154132|36||22/10/2021|UKandIre|21/09/2021
5368329|5368329|0604010|L|154633|320||22/10/2021|UKandIre|07/10/2021
5369337|5369337|0703127|L|154742|240||22/10/2021|UKandIre|12/10/2021
5386734|5386734|BL-FRP5-R|L|154893|24||22/10/2021|UKandIre|14/10/2021
5396436|5396436|1556247|L|154596|8||22/10/2021|UKandIre|06/10/2021
5401314|5401314|10079144|L|154295|30||22/10/2021|UKandIre|27/09/2021
5444091|5444091|2938442|L|154819|29||22/10/2021|UKandIre|13/10/2021
5444739|5444739|98072|L|154716|504||22/10/2021|UKandIre|11/10/2021
5466267|5466267|1016005|L|154742|360||22/10/2021|UKandIre|12/10/2021
5503154|5503154|055288436053|L|154788|40||22/10/2021|UKandIre|12/10/2021
5536728|5536728|49064|L|154789|10||22/10/2021|UKandIre|12/10/2021
5581053|5581053|24C|L|154532|60||22/10/2021|UKandIre|05/10/2021
5581080|5581080|DT1008|L|154532|30||22/10/2021|UKandIre|05/10/2021
5619996|5619996|5619996|L|151589|1584||22/10/2021|UKandIre|01/07/2021
5620050|5620050|5620050|L|151589|2640||22/10/2021|UKandIre|01/07/2021
5673879|5673879|0604313|L|154700|2376||22/10/2021|UKandIre|11/10/2021
5688432|5688432|QHOD0001|L|154650|84||22/10/2021|UKandIre|07/10/2021
5752350|5752350|QHOD0050|L|154650|80||22/10/2021|UKandIre|07/10/2021
5771997|5771997|1C12|L|155084|1000||22/10/2021|UKandIre|21/10/2021
5787940|5787940|416601|L|154068|320||22/10/2021|UKandIre|21/09/2021
5804810|5804810|HZ1B30DS|L|154184|600||22/10/2021|UKandIre|23/09/2021
5828949|5828949|290163|L|154862|480||22/10/2021|UKandIre|14/10/2021
5892877|5892877|BP2900PDS|L|154184|72||22/10/2021|UKandIre|23/09/2021
5966361|5966361|BLRT-FR7-G|L|154893|24||22/10/2021|UKandIre|14/10/2021
6015770|6015770|2666425|L|154818|80||22/10/2021|UKandIre|13/10/2021
6175548|6175548|10010235|L|153131|4||22/10/2021|UKandIre|23/08/2021
6253704|6253704|14734|L|154836|640||22/10/2021|UKandIre|13/10/2021
6262020|6262020|SDCZ50032GB3|L|154379|250||22/10/2021|UKandIre|28/09/2021
6284892|6284892|16455160|L|154462|2||22/10/2021|UKandIre|01/10/2021
6331770|6331770|407551|L|154068|320||22/10/2021|UKandIre|21/09/2021
6417158|6417158|0201009|L|154677|112||22/10/2021|UKandIre|08/10/2021
6468942|6468942|1915610|L|154818|48||22/10/2021|UKandIre|13/10/2021
6478816|6478816|800-117-0017|L|153765|432||22/10/2021|UKandIre|10/09/2021
64LC|0152536|64CCB|L|154532|288||22/10/2021|UKandIre|05/10/2021
6617889|6617889|LD01-658-7|L|151595|520||22/10/2021|UKandIre|01/07/2021
6636960|6636960|A074EEV2|L|154855|80||22/10/2021|UKandIre|14/10/2021
6636996|6636996|A196AEV|L|154855|180||22/10/2021|UKandIre|14/10/2021
6672559|6672559|126905|L|154568|100||22/10/2021|UKandIre|05/10/2021
6720651|6720651|65546|L|154132|161||22/10/2021|UKandIre|21/09/2021
6720660|6720660|65547|L|154379|127||22/10/2021|UKandIre|28/09/2021
6720669|6720669|65548|L|154379|80||22/10/2021|UKandIre|28/09/2021
6770956|6770956|YL100|L|151598|600||22/10/2021|UKandIre|01/07/2021
6771330|6771330|411169|L|154068|140||22/10/2021|UKandIre|21/09/2021
6828435|6828435|95481|L|154716|744||22/10/2021|UKandIre|11/10/2021
6851592|6851592|3726369|L|151591|336||22/10/2021|UKandIre|01/07/2021
6916048|6916048|HV1G36|L|154184|128||22/10/2021|UKandIre|23/09/2021
6930495|6930495|S50010203|L|151597|600||22/10/2021|UKandIre|01/07/2021
6946243|6946243|2666522|L|154719|173||22/10/2021|UKandIre|11/10/2021
6969312|6969312|411167|L|154068|40||22/10/2021|UKandIre|21/09/2021
7022519|7022519|C2W609FDS|L|154184|108||22/10/2021|UKandIre|23/09/2021
7022573|7022573|88769|L|154716|348||22/10/2021|UKandIre|11/10/2021
7097210|7097210|55667|L|154379|31||22/10/2021|UKandIre|28/09/2021
7097211|7097211|63253|L|154379|15||22/10/2021|UKandIre|28/09/2021
7160958|7160958|LOG920-00398|L|153131|18||22/10/2021|UKandIre|23/08/2021
7160967|7160967|10009295|L|150968|242||22/10/2021|UKandIre|14/06/2021
7165692|7165692|91328|L|154716|160||22/10/2021|UKandIre|11/10/2021
7229914|7229914|WA-7653-14|L|154568|10||22/10/2021|UKandIre|05/10/2021
7244829|7244829|SDCZ50128GB3|L|153638|3||22/10/2021|UKandIre|07/09/2021
7244829|7244829|SDCZ50128GB3|L|154379|70||22/10/2021|UKandIre|28/09/2021
7317396|7317396|2666323|L|154719|60||22/10/2021|UKandIre|11/10/2021
7357499|7357499|2938846|L|154815|20||22/10/2021|UKandIre|13/10/2021
7523952|7523952|999|L|152911|280||22/10/2021|UKandIre|13/08/2021
7774900|7774900|604471|L|154742|1440||22/10/2021|UKandIre|12/10/2021
7911658|7911658|2888233|L|154818|80||22/10/2021|UKandIre|13/10/2021
8041148|8041148|2433772|L|154598|30||22/10/2021|UKandIre|06/10/2021
8072219|8072219|71052|L|154716|432||22/10/2021|UKandIre|11/10/2021
8088106|8088106|003R94385|L|151096|8400||22/10/2021|UKandIre|16/06/2021
8088792|8088792|NCD1200075|L|152326|384||22/10/2021|UKandIre|26/07/2021
8089240|8089240|15209540|L|154903|3||22/10/2021|UKandIre|15/10/2021
8089576|8089576|OD001|L|154241|195||22/10/2021|UKandIre|24/09/2021
8092953|8092953|A190CEV|L|154855|336||22/10/2021|UKandIre|14/10/2021
8114722|8114722|SW-FC-LE-PK|L|154893|10||22/10/2021|UKandIre|14/10/2021
8163339|8163339|2509173|L|153566|1920||22/10/2021|UKandIre|06/09/2021
8235564|8235564|1105180|L|154633|480||22/10/2021|UKandIre|07/10/2021
8313026|8313026|034303016518|L|154568|2||22/10/2021|UKandIre|05/10/2021
910000325|0186458|10021757|L|150664|6||22/10/2021|UKandIre|07/06/2021
9109622|9109622|2666356|L|154818|56||22/10/2021|UKandIre|13/10/2021
9423231|9423231|11002270|L|154903|15||22/10/2021|UKandIre|15/10/2021
9537|0786631|1961|L|151773|9600||22/10/2021|UKandIre|07/07/2021
9537|0786631|1961|L|152848|9600||22/10/2021|UKandIre|11/08/2021
9713BIN-SV|0194005|0904105|L|154700|245||22/10/2021|UKandIre|11/10/2021
980845|0980845|4529376|L|151588|288||22/10/2021|UKandIre|01/07/2021
A01520|0165685|12398549|L|154914|288||22/10/2021|UKandIre|15/10/2021
A01708|0156201|12449504|L|154914|672||22/10/2021|UKandIre|15/10/2021
A02002|0133029|12483042|L|154914|448||22/10/2021|UKandIre|15/10/2021
A4263|0171498|13263|L|153986|110||22/10/2021|UKandIre|16/09/2021
ARB001|0193870|ARB001|L|154401|240||22/10/2021|UKandIre|29/09/2021
C501|0323282|100721759|L|154695|200||22/10/2021|UKandIre|08/10/2021
CH1-L|0326213|0803012|L|154742|300||22/10/2021|UKandIre|12/10/2021
CPGI520BK|0185678|1426748|L|154818|72||22/10/2021|UKandIre|13/10/2021
JB04|0233272|JB04|L|152371|90||22/10/2021|UKandIre|27/07/2021
JB04|0233272|JB04|L|152805|54||22/10/2021|UKandIre|10/08/2021
MONBAC|0152833|0604337|L|154700|132||22/10/2021|UKandIre|11/10/2021
ND405326|0120209|103025487|L|154695|24||22/10/2021|UKandIre|08/10/2021
ND538677|0195955|H-185-SL-B|L|154893|36||22/10/2021|UKandIre|14/10/2021
RM1100|0122510|SDN1|L|155084|500||22/10/2021|UKandIre|21/10/2021
STAN|0170567|100721754|L|154695|320||22/10/2021|UKandIre|08/10/2021
T100|0254284|103025491|L|154695|60||22/10/2021|UKandIre|08/10/2021
VECO500|0151987|0706052|L|154742|200||22/10/2021|UKandIre|12/10/2021
