
Date              : 8/12/2021 4:48:27 PM
Error Source      : System.Data
Error Message     : Column 'PO' does not belong to table Table.
Stack Information :    at System.Data.DataRow.GetDataColumn(String columnName)
   at System.Data.DataRow.get_Item(String columnName)
   at DataAccessLayer.ModuleDAL.Upload.UP_PurchaseOrderDetailDAL.GetPurchaseOrderInquiryDAL(Up_PurchaseOrderDetailBE oUp_PurchaseOrderDetailBE) in E:\Office Depot\Stage29_R1\VendorInPartnership\DataAccessLayer\DAL\ModuleDAL\Upload\UP_PurchaseOrderDetailDAL.cs:line 922
****************************************************************************************

Date              : 8/12/2021 4:48:46 PM
Error Source      : System.Data
Error Message     : Column 'PO' does not belong to table Table.
Stack Information :    at System.Data.DataRow.GetDataColumn(String columnName)
   at System.Data.DataRow.get_Item(String columnName)
   at DataAccessLayer.ModuleDAL.Upload.UP_PurchaseOrderDetailDAL.GetPurchaseOrderInquiryDAL(Up_PurchaseOrderDetailBE oUp_PurchaseOrderDetailBE) in E:\Office Depot\Stage29_R1\VendorInPartnership\DataAccessLayer\DAL\ModuleDAL\Upload\UP_PurchaseOrderDetailDAL.cs:line 922
****************************************************************************************

Date              : 8/12/2021 4:48:50 PM
Error Source      : System.Data
Error Message     : Column 'PO' does not belong to table Table.
Stack Information :    at System.Data.DataRow.GetDataColumn(String columnName)
   at System.Data.DataRow.get_Item(String columnName)
   at DataAccessLayer.ModuleDAL.Upload.UP_PurchaseOrderDetailDAL.GetPurchaseOrderInquiryDAL(Up_PurchaseOrderDetailBE oUp_PurchaseOrderDetailBE) in E:\Office Depot\Stage29_R1\VendorInPartnership\DataAccessLayer\DAL\ModuleDAL\Upload\UP_PurchaseOrderDetailDAL.cs:line 922
****************************************************************************************

Date              : 8/12/2021 4:49:11 PM
Error Source      : System.Data
Error Message     : Column 'PO' does not belong to table Table.
Stack Information :    at System.Data.DataRow.GetDataColumn(String columnName)
   at System.Data.DataRow.get_Item(String columnName)
   at DataAccessLayer.ModuleDAL.Upload.UP_PurchaseOrderDetailDAL.GetPurchaseOrderInquiryDAL(Up_PurchaseOrderDetailBE oUp_PurchaseOrderDetailBE) in E:\Office Depot\Stage29_R1\VendorInPartnership\DataAccessLayer\DAL\ModuleDAL\Upload\UP_PurchaseOrderDetailDAL.cs:line 922
****************************************************************************************

Date              : 8/12/2021 4:49:15 PM
Error Source      : System.Data
Error Message     : Column 'PO' does not belong to table Table.
Stack Information :    at System.Data.DataRow.GetDataColumn(String columnName)
   at System.Data.DataRow.get_Item(String columnName)
   at DataAccessLayer.ModuleDAL.Upload.UP_PurchaseOrderDetailDAL.GetPurchaseOrderInquiryDAL(Up_PurchaseOrderDetailBE oUp_PurchaseOrderDetailBE) in E:\Office Depot\Stage29_R1\VendorInPartnership\DataAccessLayer\DAL\ModuleDAL\Upload\UP_PurchaseOrderDetailDAL.cs:line 922
****************************************************************************************

Date              : 8/12/2021 4:49:17 PM
Error Source      : System.Data
Error Message     : Column 'PO' does not belong to table Table.
Stack Information :    at System.Data.DataRow.GetDataColumn(String columnName)
   at System.Data.DataRow.get_Item(String columnName)
   at DataAccessLayer.ModuleDAL.Upload.UP_PurchaseOrderDetailDAL.GetPurchaseOrderInquiryDAL(Up_PurchaseOrderDetailBE oUp_PurchaseOrderDetailBE) in E:\Office Depot\Stage29_R1\VendorInPartnership\DataAccessLayer\DAL\ModuleDAL\Upload\UP_PurchaseOrderDetailDAL.cs:line 922
****************************************************************************************

Date              : 8/12/2021 4:50:06 PM
Error Source      : System.Data
Error Message     : Column 'PO' does not belong to table Table.
Stack Information :    at System.Data.DataRow.GetDataColumn(String columnName)
   at System.Data.DataRow.get_Item(String columnName)
   at DataAccessLayer.ModuleDAL.Upload.UP_PurchaseOrderDetailDAL.GetPurchaseOrderInquiryDAL(Up_PurchaseOrderDetailBE oUp_PurchaseOrderDetailBE) in E:\Office Depot\Stage29_R1\VendorInPartnership\DataAccessLayer\DAL\ModuleDAL\Upload\UP_PurchaseOrderDetailDAL.cs:line 922
****************************************************************************************

Date              : 8/12/2021 4:50:09 PM
Error Source      : System.Data
Error Message     : Column 'PO' does not belong to table Table.
Stack Information :    at System.Data.DataRow.GetDataColumn(String columnName)
   at System.Data.DataRow.get_Item(String columnName)
   at DataAccessLayer.ModuleDAL.Upload.UP_PurchaseOrderDetailDAL.GetPurchaseOrderInquiryDAL(Up_PurchaseOrderDetailBE oUp_PurchaseOrderDetailBE) in E:\Office Depot\Stage29_R1\VendorInPartnership\DataAccessLayer\DAL\ModuleDAL\Upload\UP_PurchaseOrderDetailDAL.cs:line 922
****************************************************************************************

Date              : 8/12/2021 4:50:10 PM
Error Source      : System.Data
Error Message     : Column 'PO' does not belong to table Table.
Stack Information :    at System.Data.DataRow.GetDataColumn(String columnName)
   at System.Data.DataRow.get_Item(String columnName)
   at DataAccessLayer.ModuleDAL.Upload.UP_PurchaseOrderDetailDAL.GetPurchaseOrderInquiryDAL(Up_PurchaseOrderDetailBE oUp_PurchaseOrderDetailBE) in E:\Office Depot\Stage29_R1\VendorInPartnership\DataAccessLayer\DAL\ModuleDAL\Upload\UP_PurchaseOrderDetailDAL.cs:line 922
****************************************************************************************

Date              : 8/12/2021 4:50:11 PM
Error Source      : System.Data
Error Message     : Column 'PO' does not belong to table Table.
Stack Information :    at System.Data.DataRow.GetDataColumn(String columnName)
   at System.Data.DataRow.get_Item(String columnName)
   at DataAccessLayer.ModuleDAL.Upload.UP_PurchaseOrderDetailDAL.GetPurchaseOrderInquiryDAL(Up_PurchaseOrderDetailBE oUp_PurchaseOrderDetailBE) in E:\Office Depot\Stage29_R1\VendorInPartnership\DataAccessLayer\DAL\ModuleDAL\Upload\UP_PurchaseOrderDetailDAL.cs:line 922
****************************************************************************************

Date              : 8/12/2021 4:50:12 PM
Error Source      : System.Data
Error Message     : Column 'PO' does not belong to table Table.
Stack Information :    at System.Data.DataRow.GetDataColumn(String columnName)
   at System.Data.DataRow.get_Item(String columnName)
   at DataAccessLayer.ModuleDAL.Upload.UP_PurchaseOrderDetailDAL.GetPurchaseOrderInquiryDAL(Up_PurchaseOrderDetailBE oUp_PurchaseOrderDetailBE) in E:\Office Depot\Stage29_R1\VendorInPartnership\DataAccessLayer\DAL\ModuleDAL\Upload\UP_PurchaseOrderDetailDAL.cs:line 922
****************************************************************************************

Date              : 8/12/2021 4:50:28 PM
Error Source      : System.Data
Error Message     : Column 'PO' does not belong to table Table.
Stack Information :    at System.Data.DataRow.GetDataColumn(String columnName)
   at System.Data.DataRow.get_Item(String columnName)
   at DataAccessLayer.ModuleDAL.Upload.UP_PurchaseOrderDetailDAL.GetPurchaseOrderInquiryDAL(Up_PurchaseOrderDetailBE oUp_PurchaseOrderDetailBE) in E:\Office Depot\Stage29_R1\VendorInPartnership\DataAccessLayer\DAL\ModuleDAL\Upload\UP_PurchaseOrderDetailDAL.cs:line 922
****************************************************************************************

Date              : 8/12/2021 4:50:49 PM
Error Source      : System.Data
Error Message     : Column 'PO' does not belong to table Table.
Stack Information :    at System.Data.DataRow.GetDataColumn(String columnName)
   at System.Data.DataRow.get_Item(String columnName)
   at DataAccessLayer.ModuleDAL.Upload.UP_PurchaseOrderDetailDAL.GetPurchaseOrderInquiryDAL(Up_PurchaseOrderDetailBE oUp_PurchaseOrderDetailBE) in E:\Office Depot\Stage29_R1\VendorInPartnership\DataAccessLayer\DAL\ModuleDAL\Upload\UP_PurchaseOrderDetailDAL.cs:line 922
****************************************************************************************

Date              : 8/12/2021 4:50:50 PM
Error Source      : System.Data
Error Message     : Column 'PO' does not belong to table Table.
Stack Information :    at System.Data.DataRow.GetDataColumn(String columnName)
   at System.Data.DataRow.get_Item(String columnName)
   at DataAccessLayer.ModuleDAL.Upload.UP_PurchaseOrderDetailDAL.GetPurchaseOrderInquiryDAL(Up_PurchaseOrderDetailBE oUp_PurchaseOrderDetailBE) in E:\Office Depot\Stage29_R1\VendorInPartnership\DataAccessLayer\DAL\ModuleDAL\Upload\UP_PurchaseOrderDetailDAL.cs:line 922
****************************************************************************************

Date              : 8/12/2021 4:51:11 PM
Error Source      : System.Data
Error Message     : Column 'PO' does not belong to table Table.
Stack Information :    at System.Data.DataRow.GetDataColumn(String columnName)
   at System.Data.DataRow.get_Item(String columnName)
   at DataAccessLayer.ModuleDAL.Upload.UP_PurchaseOrderDetailDAL.GetPurchaseOrderInquiryDAL(Up_PurchaseOrderDetailBE oUp_PurchaseOrderDetailBE) in E:\Office Depot\Stage29_R1\VendorInPartnership\DataAccessLayer\DAL\ModuleDAL\Upload\UP_PurchaseOrderDetailDAL.cs:line 922
****************************************************************************************

Date              : 8/12/2021 4:51:12 PM
Error Source      : System.Data
Error Message     : Column 'PO' does not belong to table Table.
Stack Information :    at System.Data.DataRow.GetDataColumn(String columnName)
   at System.Data.DataRow.get_Item(String columnName)
   at DataAccessLayer.ModuleDAL.Upload.UP_PurchaseOrderDetailDAL.GetPurchaseOrderInquiryDAL(Up_PurchaseOrderDetailBE oUp_PurchaseOrderDetailBE) in E:\Office Depot\Stage29_R1\VendorInPartnership\DataAccessLayer\DAL\ModuleDAL\Upload\UP_PurchaseOrderDetailDAL.cs:line 922
****************************************************************************************

Date              : 8/12/2021 4:52:45 PM
Error Source      : System.Data
Error Message     : Column 'PO' does not belong to table Table.
Stack Information :    at System.Data.DataRow.GetDataColumn(String columnName)
   at System.Data.DataRow.get_Item(String columnName)
   at DataAccessLayer.ModuleDAL.Upload.UP_PurchaseOrderDetailDAL.GetPurchaseOrderInquiryDAL(Up_PurchaseOrderDetailBE oUp_PurchaseOrderDetailBE) in E:\Office Depot\Stage29_R1\VendorInPartnership\DataAccessLayer\DAL\ModuleDAL\Upload\UP_PurchaseOrderDetailDAL.cs:line 922
****************************************************************************************
