Action :GetVendorEmailForBooking 
SiteVendorID :2119
SiteID :6

VendorData[0]alex.roche@kendon.co.uk,
VendorData[1] :English,

VendorData[0]alex.roche@kendon.co.uk,cdcvendor@hotmail.co.uk,
VendorData[1] :English,English,


Email at 6/29/2021 11:28:12 AM:
Subject:Delivery Issue
BCC:shrishc1@gmail.com; CC:; To:alex.roche@kendon.co.uk



Email at 6/29/2021 11:28:13 AM:
Subject:Delivery Issue
BCC:shrishc1@gmail.com; CC:; To:cdcvendor@hotmail.co.uk


----------------------------------------
1.1.BookingID :- 30835
1.2.BookingID :- 30835
1.MailSend :- True
1.3.BookingType :- 
1.4.IsBookingAmended :- False
1.5.IsBookingEditWithMail :- 
1.6.IsBookingEditWithMail :- 

2.1.BookingID :- 30835

Action :GetVendorEmailForBooking 
SiteVendorID :2119
SiteID :6

VendorData[0]alex.roche@kendon.co.uk,
VendorData[1] :English,

VendorData[0]alex.roche@kendon.co.uk,cdcvendor@hotmail.co.uk,
VendorData[1] :English,English,

3.1.BookingID :- 30835
4.1.BookingID :- 30835
4.2.BookingID :- 30835
4.3.sentTo :- alex.roche@kendon.co.uk


Email at 6/29/2021 11:33:17 AM:
Subject:Confirmation of your Booking
BCC:shrishc1@gmail.com; CC:; To:alex.roche@kendon.co.uk


6.BookingID :- 30835
6.UserID :- 1
6.LanguageFile :- Confirmation.english.htm
7.IsBookingAmended :- False
8.IsBookingEditWithMail :- 
9.BookingID :- 30835
10.EmailId :- alex.roche@kendon.co.uk
11.BookingID :- 30835
------------------------------------------------------


Email at 6/29/2021 11:33:17 AM:
Subject:Confirmation of your Booking
BCC:shrishc1@gmail.com; CC:; To:cdcvendor@hotmail.co.uk


6.BookingID :- 30835
6.UserID :- 1
6.LanguageFile :- Confirmation.english.htm
7.IsBookingAmended :- False
8.IsBookingEditWithMail :- 
9.BookingID :- 30835
10.EmailId :- cdcvendor@hotmail.co.uk
11.BookingID :- 30835
------------------------------------------------------

Action :GetVendorEmailForBooking 
SiteVendorID :2119
SiteID :6

VendorData[0]alex.roche@kendon.co.uk,
VendorData[1] :English,

VendorData[0]alex.roche@kendon.co.uk,cdcvendor@hotmail.co.uk,
VendorData[1] :English,English,


Email at 6/29/2021 11:59:31 AM:
Subject:Delivery Issue
BCC:shrishc1@gmail.com; CC:; To:alex.roche@kendon.co.uk



Email at 6/29/2021 11:59:35 AM:
Subject:Delivery Issue
BCC:shrishc1@gmail.com; CC:; To:cdcvendor@hotmail.co.uk



Email at 6/29/2021 12:34:57 PM:
Subject:ISPM15 ISSUE from VIP
BCC:shrishc1@gmail.com; CC:; To:nene.niare@officedepot.com


Action :GetVendorEmailForBooking 
SiteVendorID :2119
SiteID :6

VendorData[0]alex.roche@kendon.co.uk,
VendorData[1] :English,

VendorData[0]alex.roche@kendon.co.uk,cdcvendor@hotmail.co.uk,
VendorData[1] :English,English,

----------------------------------------
1.1.BookingID :- 30836
1.2.BookingID :- 30836
1.MailSend :- True
1.3.BookingType :- 
1.4.IsBookingAmended :- False
1.5.IsBookingEditWithMail :- 
1.6.IsBookingEditWithMail :- 

2.1.BookingID :- 30836

Action :GetVendorEmailForBooking 
SiteVendorID :2062
SiteID :6

Action :GetContactDetailsForBooking 
SiteVendorID :2062
SiteID :6

From Default mail 
VendorData EmailID:shrishc1@damcogroup.comand LanguageEnglish 

3.1.BookingID :- 30836
4.1.BookingID :- 30836
4.2.BookingID :- 30836
4.3.sentTo :- shrishc1@damcogroup.com


Email at 6/29/2021 12:48:35 PM:
Subject:Confirmation of your Booking
BCC:shrishc1@gmail.com; CC:; To:shrishc1@damcogroup.com


6.BookingID :- 30836
6.UserID :- 1
6.LanguageFile :- Confirmation.english.htm
7.IsBookingAmended :- False
8.IsBookingEditWithMail :- 
9.BookingID :- 30836
10.EmailId :- shrishc1@damcogroup.com
11.BookingID :- 30836
------------------------------------------------------

Action :GetVendorEmailForBooking 
SiteVendorID :2062
SiteID :6

Action :GetContactDetailsForBooking 
SiteVendorID :2062
SiteID :6

From Default mail 
VendorData EmailID:shrishc1@damcogroup.comand LanguageEnglish 


Email at 6/29/2021 12:49:26 PM:
Subject:Delivery Issue
BCC:shrishc1@gmail.com; CC:; To:shrishc1@damcogroup.com


Action :GetVendorEmailForBooking 
SiteVendorID :2062
SiteID :6

Action :GetContactDetailsForBooking 
SiteVendorID :2062
SiteID :6

From Default mail 
VendorData EmailID:shrishc1@damcogroup.comand LanguageEnglish 


Email at 6/29/2021 12:53:28 PM:
Subject:ISPM15 ISSUE from VIP
BCC:shrishc1@gmail.com; CC:; To:nene.niare@officedepot.com


Action :GetVendorEmailForBooking 
SiteVendorID :2062
SiteID :6

Action :GetContactDetailsForBooking 
SiteVendorID :2062
SiteID :6

From Default mail 
VendorData EmailID:shrishc1@damcogroup.comand LanguageEnglish 

Action :GetVendorEmailForBooking 
SiteVendorID :2062
SiteID :6

Action :GetContactDetailsForBooking 
SiteVendorID :2062
SiteID :6

From Default mail 
VendorData EmailID:shrishc1@damcogroup.comand LanguageEnglish 

----------------------------------------
1.1.BookingID :- 30837
1.2.BookingID :- 30837
1.MailSend :- True
1.3.BookingType :- 
1.4.IsBookingAmended :- False
1.5.IsBookingEditWithMail :- 
1.6.IsBookingEditWithMail :- 

2.1.BookingID :- 30837

Action :GetVendorEmailForBooking 
SiteVendorID :1901
SiteID :6

VendorData[0]dmaurya@gmail.com,
VendorData[1] :French,

3.1.BookingID :- 30837
4.1.BookingID :- 30837
4.2.BookingID :- 30837
4.3.sentTo :- dmaurya@gmail.com


Email at 6/29/2021 2:01:52 PM:
Subject:Confirmation of your Booking
BCC:shrishc1@gmail.com; CC:; To:dmaurya@gmail.com


6.BookingID :- 30837
6.UserID :- 1
6.LanguageFile :- Confirmation.english.htm
7.IsBookingAmended :- False
8.IsBookingEditWithMail :- 
9.BookingID :- 30837
10.EmailId :- dmaurya@gmail.com
11.BookingID :- 30837
------------------------------------------------------


Email at 6/29/2021 2:04:37 PM:
Subject:ISPM15 ISSUE from VIP
BCC:shrishc1@gmail.com; CC:; To:nene.niare@officedepot.com


