
 BO Penalty Initial Reminder Communication Started at            : 02/27/2020 06:43:21 PM
****************************************


 BO Penalty Initial Reminder Communication Started at            : 02/27/2020 06:44:52 PM
****************************************


Email at 02/27/2020 06:47:06 PM:
Subject:IMPORTANT Proposed Penalty Charge Notification Added to your VIP Account
BCC:abhinavj@gmail.com; CC:; To:abhinavj@damcogroup.com



 BO Penalty Reminder Communication Ended at            : 02/27/2020 06:47:44 PM
****************************************


 BO Penalty Medaitor Communication Started at            : 02/27/2020 06:47:44 PM
****************************************


 BO Penalty Medaitor Communication Ended at            : 02/27/2020 06:47:52 PM
****************************************


 BO Penalty Initial Reminder Communication Started at            : 02/27/2020 06:49:18 PM
****************************************

No Record Found for BO Vendor Reminder Communication1


 BO Penalty Reminder Communication Ended at            : 02/27/2020 06:49:22 PM
****************************************


 BO Penalty Medaitor Communication Started at            : 02/27/2020 06:49:22 PM
****************************************


 BO Penalty Medaitor Communication Ended at            : 02/27/2020 06:49:30 PM
****************************************


 BO Penalty Initial Reminder Communication Started at            : 02/27/2020 06:49:49 PM
****************************************

No Record Found for BO Vendor Reminder Communication1


 BO Penalty Reminder Communication Ended at            : 02/27/2020 06:50:06 PM
****************************************


 BO Penalty Medaitor Communication Started at            : 02/27/2020 06:50:06 PM
****************************************


 BO Penalty Medaitor Communication Ended at            : 02/27/2020 06:50:13 PM
****************************************


 BO Penalty Initial Reminder Communication Started at            : 02/27/2020 06:51:15 PM
****************************************


Email at 02/27/2020 06:52:57 PM:
Subject:IMPORTANT Proposed Penalty Charge Notification Added to your VIP Account
BCC:abhinavj@gmail.com; CC:; To:nimans@btinternet.com



 BO Penalty Reminder Communication Ended at            : 02/27/2020 06:53:57 PM
****************************************


 BO Penalty Medaitor Communication Started at            : 02/27/2020 06:53:57 PM
****************************************


 BO Penalty Initial Reminder Communication Started at            : 02/27/2020 06:56:08 PM
****************************************


Email at 02/27/2020 07:09:05 PM:
Subject:IMPORTANT Proposed Penalty Charge Notification Added to your VIP Account
BCC:abhinavj@gmail.com; CC:; To:abhinavj@damcogroup.com



 BO Penalty Reminder Communication Ended at            : 02/27/2020 07:11:22 PM
****************************************


 BO Penalty Medaitor Communication Started at            : 02/27/2020 07:11:28 PM
****************************************


 BO Penalty Medaitor Communication Ended at            : 02/27/2020 07:11:47 PM
****************************************

