#Command: "C:\Program Files (x86)\Microsoft Visual Studio 10.0\Common7\IDE\devenv.exe" "D:\01 UK_OfficeDepot\04_Development\Source_Code\VendorInPartnership_ScorecardScheduler\VendorInPartnership_ScorecardScheduler.sln"
^D:\01 UK_OFFICEDEPOT\04_DEVELOPMENT\SOURCE_CODE\VENDORINPARTNERSHIP_SCORECARDSCHEDULER\VIP_SCORECARDSCHEDULER\PROPERTIES\RESOURCES.RESX
\\172.29.8.9\OFFICEDEPOT_VSS\DATA\O\OCRCAAAA
\\172.29.8.9\OFFICEDEPOT_VSS\DATA\O\OCRCAAAA.B
\\172.29.8.9\OFFICEDEPOT_VSS\DATA\P\PCRCAAAA
C:\USERS\USER\APPDATA\LOCAL\TEMP\950FD20580CF41778C3AB5976505B811.RSP
