Started at            : 02/10/2022 11:28:22 PM
Folder              : E:\Office Depot\Source_Code\VendorInPartnership_ReportingQueueServiceNew\VIP_ReportingQueueService\bin\Debug\ReportOutput\
****************************************************************************************

ReportRequestID :9: IsGenerated =False
Report Status Updated Pending for : 9
Report Request for OTIF
DAL SP name           : spOTIF_Reports
DAL Param Values      : 0) @Action - OTIF_ODLineLevelDetailedReport
DAL Param Values      : 1) @SelectedCountryIDs - 
DAL Param Values      : 2) @SelectedSiteIDs - 7
DAL Param Values      : 3) @SelectedStockPlannerIDs - 
DAL Param Values      : 4) @SelectedVendorIDs - 
DAL Param Values      : 5) @OfficeDepotSKU - 
DAL Param Values      : 6) @SelectedPurchaseOrders - 
DAL Param Values      : 7) @SelectedItemClassification - 
DAL Param Values      : 8) @SelectedAPIDs - 
DAL Param Values      : 9) @VendorNumber - 
DAL Param Values      : 10) @VendorName - 
DAL Param Values      : 11) @DateTo - 02/01/2022 12:00:00 AM
DAL Param Values      : 12) @DateFrom - 02/01/2022 12:00:00 AM
DAL Param Values      : 13) @PurchaseOrderDue - 1
DAL Param Values      : 14) @PurchaseOrderReceived - 0
DAL Param Values      : 15) @RMSCategoryIDs - 
DAL Param Values      : 16) @SkugroupingID - 
DAL Param Values      : 17) @StockPlannerGroupingID - 
DAL Param Values      : 18) @CustomerIDs - 


Record count          : 108328
Report Status Updated Generated for : 9
****************************************************************************************

Started at            : 02/10/2022 11:55:31 PM
Folder              : E:\Office Depot\Source_Code\VendorInPartnership_ReportingQueueServiceNew\VIP_ReportingQueueService\bin\Debug\ReportOutput\
****************************************************************************************

ReportRequestID :9: IsGenerated =False
Report Status Updated Pending for : 9
Report Request for OTIF
DAL SP name           : spOTIF_Reports
DAL Param Values      : 0) @Action - OTIF_ODLineLevelDetailedReport
DAL Param Values      : 1) @SelectedCountryIDs - 
DAL Param Values      : 2) @SelectedSiteIDs - 7
DAL Param Values      : 3) @SelectedStockPlannerIDs - 
DAL Param Values      : 4) @SelectedVendorIDs - 
DAL Param Values      : 5) @OfficeDepotSKU - 
DAL Param Values      : 6) @SelectedPurchaseOrders - 
DAL Param Values      : 7) @SelectedItemClassification - 
DAL Param Values      : 8) @SelectedAPIDs - 
DAL Param Values      : 9) @VendorNumber - 
DAL Param Values      : 10) @VendorName - 
DAL Param Values      : 11) @DateTo - 02/01/2022 12:00:00 AM
DAL Param Values      : 12) @DateFrom - 02/01/2022 12:00:00 AM
DAL Param Values      : 13) @PurchaseOrderDue - 1
DAL Param Values      : 14) @PurchaseOrderReceived - 0
DAL Param Values      : 15) @RMSCategoryIDs - 
DAL Param Values      : 16) @SkugroupingID - 
DAL Param Values      : 17) @StockPlannerGroupingID - 
DAL Param Values      : 18) @CustomerIDs - 


Record count          : 108328
