
Date              : 03/04/2020 03:49:34 PM
Error Source      : VIP_DiscrepancyEscalationScheduler
Error Message     : Unable to cast object of type 'System.Int32' to type 'System.String'.
Stack Information :    at VIP_DiscrepancyEscalationScheduler.ItemProcessQueue.GenerateItemSummaryReport() in E:\Office Depot\Source_Code\VendorInPartnership_DiscrepancyEscalationScheduler\VIP_DiscrepancyEscalationScheduler\RDLC\ItemProcessQueue.cs:line 226
   at VIP_DiscrepancyEscalationScheduler.Program.Main() in E:\Office Depot\Source_Code\VendorInPartnership_DiscrepancyEscalationScheduler\VIP_DiscrepancyEscalationScheduler\Program.cs:line 402
****************************************************************************************

Date              : 03/04/2020 03:50:10 PM
Error Source      : VIP_DiscrepancyEscalationScheduler
Error Message     : Unable to cast object of type 'System.Int32' to type 'System.String'.
Stack Information :    at VIP_DiscrepancyEscalationScheduler.ItemProcessQueue.GenerateItemSummaryReport() in E:\Office Depot\Source_Code\VendorInPartnership_DiscrepancyEscalationScheduler\VIP_DiscrepancyEscalationScheduler\RDLC\ItemProcessQueue.cs:line 226
   at VIP_DiscrepancyEscalationScheduler.Program.Main() in E:\Office Depot\Source_Code\VendorInPartnership_DiscrepancyEscalationScheduler\VIP_DiscrepancyEscalationScheduler\Program.cs:line 402
****************************************************************************************

Date              : 03/04/2020 03:51:52 PM
Error Source      : VIP_DiscrepancyEscalationScheduler
Error Message     : Unable to cast object of type 'System.Int32' to type 'System.String'.
Stack Information :    at VIP_DiscrepancyEscalationScheduler.ItemProcessQueue.GenerateItemSummaryReport() in E:\Office Depot\Source_Code\VendorInPartnership_DiscrepancyEscalationScheduler\VIP_DiscrepancyEscalationScheduler\RDLC\ItemProcessQueue.cs:line 226
   at VIP_DiscrepancyEscalationScheduler.Program.Main() in E:\Office Depot\Source_Code\VendorInPartnership_DiscrepancyEscalationScheduler\VIP_DiscrepancyEscalationScheduler\Program.cs:line 402
****************************************************************************************
