
Date              : 09/17/2019 03:04:18 PM
Error Source      : System.Data
Error Message     : Cannot find table 0.
Stack Information :    at System.Data.DataTableCollection.get_Item(Int32 index)
   at DataAccessLayer.ModuleDAL.Discrepancy.Report.DiscrepancyReportDAL.getDiscrepancyNotificationForSendingMailDAL(DiscrepancyNotification discrepancyNotification) in E:\Office Depot\Source_Code\Source_Code_Stage7_V2\DataAccessLayer\DAL\ModuleDAL\Discrepancy\Report\DiscrepancyReportDAL.cs:line 158
****************************************************************************************

Date              : 09/17/2019 03:04:51 PM
Error Source      : System.Data
Error Message     : Cannot find table 0.
Stack Information :    at System.Data.DataTableCollection.get_Item(Int32 index)
   at DataAccessLayer.ModuleDAL.Discrepancy.Report.DiscrepancyReportDAL.getDiscrepancyNotificationForSendingMailDAL(DiscrepancyNotification discrepancyNotification) in E:\Office Depot\Source_Code\Source_Code_Stage7_V2\DataAccessLayer\DAL\ModuleDAL\Discrepancy\Report\DiscrepancyReportDAL.cs:line 158
****************************************************************************************

Date              : 09/17/2019 03:05:41 PM
Error Source      : System.Data
Error Message     : Cannot find table 0.
Stack Information :    at System.Data.DataTableCollection.get_Item(Int32 index)
   at DataAccessLayer.ModuleDAL.Discrepancy.Report.DiscrepancyReportDAL.getDiscrepancyNotificationForSendingMailDAL(DiscrepancyNotification discrepancyNotification) in E:\Office Depot\Source_Code\Source_Code_Stage7_V2\DataAccessLayer\DAL\ModuleDAL\Discrepancy\Report\DiscrepancyReportDAL.cs:line 158
****************************************************************************************

Date              : 09/17/2019 03:09:08 PM
Error Source      : Utilites
Error Message     : Object reference not set to an instance of an object.
Stack Information :    at Utilities.clsEmail.set_EmailSubjectText(String value) in E:\Office Depot\Source_Code\Source_Code_Stage7_V2\CommonUtilities\Utilities\clsEmail.cs:line 105
   at Utilities.clsEmail.sendMail(String toAddress, String mailBody, String mailSubject, String fromAddress, Boolean bIsHTMLMail, String attchementPath, LinkedResource imageResourceEs) in E:\Office Depot\Source_Code\Source_Code_Stage7_V2\CommonUtilities\Utilities\clsEmail.cs:line 395
****************************************************************************************

Date              : 09/17/2019 03:14:35 PM
Error Source      : Utilites
Error Message     : Object reference not set to an instance of an object.
Stack Information :    at Utilities.clsEmail.set_EmailSubjectText(String value) in E:\Office Depot\Source_Code\Source_Code_Stage7_V2\CommonUtilities\Utilities\clsEmail.cs:line 105
   at Utilities.clsEmail.sendMail(String toAddress, String mailBody, String mailSubject, String fromAddress, Boolean bIsHTMLMail, String attchementPath, LinkedResource imageResourceEs) in E:\Office Depot\Source_Code\Source_Code_Stage7_V2\CommonUtilities\Utilities\clsEmail.cs:line 395
****************************************************************************************

Date              : 09/17/2019 03:17:33 PM
Error Source      : Utilites
Error Message     : Object reference not set to an instance of an object.
Stack Information :    at Utilities.clsEmail.set_EmailSubjectText(String value) in E:\Office Depot\Source_Code\Source_Code_Stage7_V2\CommonUtilities\Utilities\clsEmail.cs:line 105
   at Utilities.clsEmail.sendMail(String toAddress, String mailBody, String mailSubject, String fromAddress, Boolean bIsHTMLMail, String attchementPath, LinkedResource imageResourceEs) in E:\Office Depot\Source_Code\Source_Code_Stage7_V2\CommonUtilities\Utilities\clsEmail.cs:line 395
****************************************************************************************

Date              : 09/17/2019 03:17:42 PM
Error Source      : System.Data
Error Message     : Cannot find table 0.
Stack Information :    at System.Data.DataTableCollection.get_Item(Int32 index)
   at DataAccessLayer.ModuleDAL.Discrepancy.Report.DiscrepancyReportDAL.getDiscrepancyNotificationForSendingMailDAL(DiscrepancyNotification discrepancyNotification) in E:\Office Depot\Source_Code\Source_Code_Stage7_V2\DataAccessLayer\DAL\ModuleDAL\Discrepancy\Report\DiscrepancyReportDAL.cs:line 158
****************************************************************************************
