Started at            : 09/25/2019 12:21:19 PM
****************************************************************************************

Started at            : 09/25/2019 12:25:04 PM
****************************************************************************************

Started at            : 09/25/2019 12:26:01 PM
****************************************************************************************


 BO Penalty Initail Communication Started at            : 09/25/2019 12:26:10 PM
****************************************

No Record Found for BO Vendor Communication1

Started at            : 09/25/2019 12:29:52 PM
****************************************************************************************


 BO Penalty Initail Communication Started at            : 09/25/2019 12:30:02 PM
****************************************

