Started at            : 01/21/2022 11:09:06 AM
****************************************************************************************


Record count          : 33

Email at 01/21/2022 11:09:13 AM:
Subject:Inbound discrepancy tracker wk 3 has been created!
BCC:shrishc1@damcogroup.com; CC:; To:abhinavj@damcogroup.com, shrishc1@damcogroup.com


The SMTP server requires a secure connection or the client was not authenticated. The server response was: 5.7.0 Authentication required

Report Successfully Generated

Sending mails to stock planner

Mails send Successfully

Generate & send stock planner Discrepancy report failed at        : 01/21/2022 11:09:13 AM
****************************************************************************************

Ended at              : 01/21/2022 11:09:13 AM
****************************************************************************************

Started at            : 01/21/2022 11:12:08 AM
****************************************************************************************


Record count          : 33

Email at 01/21/2022 11:12:13 AM:
Subject:Inbound discrepancy tracker wk 3 has been created!
BCC:shrishc1@damcogroup.com; CC:; To:abhinavj@damcogroup.com, shrishc1@damcogroup.com


The SMTP server requires a secure connection or the client was not authenticated. The server response was: 5.7.0 Authentication required

Report Successfully Generated

Sending mails to stock planner

Mails send Successfully

Generate & send stock planner Discrepancy report failed at        : 01/21/2022 11:12:13 AM
****************************************************************************************

Ended at              : 01/21/2022 11:12:13 AM
****************************************************************************************

Started at            : 01/21/2022 11:13:15 AM
****************************************************************************************


Record count          : 33

Email at 01/21/2022 11:13:20 AM:
Subject:Inbound discrepancy tracker wk 3 has been created!
BCC:shrishc1@damcogroup.com; CC:; To:abhinavj@damcogroup.com, shrishc1@damcogroup.com


The SMTP server requires a secure connection or the client was not authenticated. The server response was: 5.7.0 Authentication required

Report Successfully Generated

Sending mails to stock planner

Mails send Successfully

Generate & send stock planner Discrepancy report failed at        : 01/21/2022 11:13:22 AM
****************************************************************************************

Ended at              : 01/21/2022 11:13:22 AM
****************************************************************************************

Started at            : 01/21/2022 11:15:18 AM
****************************************************************************************


Record count          : 33

Email at 01/21/2022 11:15:22 AM:
Subject:Inbound discrepancy tracker wk 3 has been created!
BCC:shrishc1@damcogroup.com; CC:; To:abhinavj@damcogroup.com, shrishc1@damcogroup.com


The SMTP server requires a secure connection or the client was not authenticated. The server response was: 5.7.0 Authentication required

Report Successfully Generated

Sending mails to stock planner

Mails send Successfully

Generate & send stock planner Discrepancy report failed at        : 01/21/2022 11:15:23 AM
****************************************************************************************

Ended at              : 01/21/2022 11:15:23 AM
****************************************************************************************

Started at            : 01/21/2022 11:18:23 AM
****************************************************************************************


Record count          : 33

Email at 01/21/2022 11:18:27 AM:
Subject:Inbound discrepancy tracker wk 3 has been created!
BCC:shrishc1@damcogroup.com; CC:; To:abhinavj@damcogroup.com, shrishc1@damcogroup.com


The SMTP server requires a secure connection or the client was not authenticated. The server response was: 5.7.0 Authentication required

Report Successfully Generated

Sending mails to stock planner

Mails send Successfully

Generate & send stock planner Discrepancy report failed at        : 01/21/2022 11:18:28 AM
****************************************************************************************

Ended at              : 01/21/2022 11:18:28 AM
****************************************************************************************

Started at            : 01/21/2022 11:19:51 AM
****************************************************************************************


Record count          : 33

Email at 01/21/2022 11:19:55 AM:
Subject:Inbound discrepancy tracker wk 3 has been created!
BCC:shrishc1@damcogroup.com; CC:; To:abhinavj@damcogroup.com, shrishc1@damcogroup.com


The SMTP server requires a secure connection or the client was not authenticated. The server response was: 5.7.0 Authentication required

Report Successfully Generated

Sending mails to stock planner

Mails send Successfully

Generate & send stock planner Discrepancy report failed at        : 01/21/2022 11:19:56 AM
****************************************************************************************

Ended at              : 01/21/2022 11:19:56 AM
****************************************************************************************

