
Date              : 09/20/2019 05:15:48 PM
Error Source      : Utilites
Error Message     : Object reference not set to an instance of an object.
Stack Information :    at Utilities.clsEmail.SendMailWithLogo() in E:\Office Depot\Source_Code\Source_Code_Stage7_V2\CommonUtilities\Utilities\clsEmail.cs:line 524
****************************************************************************************
