Started at            : 02/21/2020 11:24:24 AM
****************************************************************************************

Started at            : 02/21/2020 11:27:34 AM
****************************************************************************************


Record count          : 1
Generate & send stock planner Discrepancy report failed at        : 02/21/2020 11:27:40 AM
****************************************************************************************

Ended at              : 02/21/2020 11:27:40 AM
****************************************************************************************

Started at            : 02/21/2020 11:28:12 AM
****************************************************************************************


Record count          : 1
Generate & send stock planner Discrepancy report failed at        : 02/21/2020 11:29:31 AM
****************************************************************************************

Ended at              : 02/21/2020 11:29:31 AM
****************************************************************************************

Started at            : 02/21/2020 11:29:50 AM
****************************************************************************************


Record count          : 1
Generate & send stock planner Discrepancy report failed at        : 02/21/2020 11:30:21 AM
****************************************************************************************

Ended at              : 02/21/2020 11:30:22 AM
****************************************************************************************

Started at            : 02/21/2020 11:30:35 AM
****************************************************************************************


Record count          : 1

Record count          : 1
Started at            : 02/21/2020 02:54:24 PM
****************************************************************************************


Record count          : 9

Email at 02/21/2020 02:58:46 PM:
Subject:Inbound discrepancy tracker wk 8 has been created!
BCC:shrishc1@damcogroup.com; CC:; To:abhinavj@damcogroup.com, shrishc1@damcogroup.com



Report Successfully Generated

Sending mails to stock planner

Mails send Successfully

Started at            : 02/21/2020 03:40:40 PM
****************************************************************************************


Record count          : 9
Started at            : 02/21/2020 04:01:09 PM
****************************************************************************************


Record count          : 9
Started at            : 02/21/2020 04:47:09 PM
****************************************************************************************


Record count          : 9

Email at 02/21/2020 04:47:30 PM:
Subject:Inbound discrepancy tracker wk 8 has been created!
BCC:shrishc1@damcogroup.com; CC:; To:abhinavj@damcogroup.com, shrishc1@damcogroup.com



Report Successfully Generated

Sending mails to stock planner

Mails send Successfully

The specified string is not in the form required for an e-mail address.
Mail sent  : 02/21/2020 04:47:33 PM
****************************************************************************************

Ended at              : 02/21/2020 04:47:33 PM
****************************************************************************************

