Started at            : 09/20/2019 04:28:31 PM
****************************************************************************************


 BO Penalty Resend Closed Communication Started at            : 09/20/2019 04:28:31 PM
****************************************

No Record Found for BO Vendor Closed Communication


 BO Penalty Closed Communication Ended at            : 09/20/2019 04:28:39 PM
****************************************


Record count          : 35

Email at 09/20/2019 04:30:57 PM:
Subject:Inbound discrepancy tracker wk 38has been created!
BCC:shrishc1@damcogroup.com; CC:; To:shrishc1@damcogroup.com



Report Successfully Generated

Sending mails to stock planner

Mails send Successfully

Ended at              : 09/20/2019 04:31:01 PM
****************************************************************************************

Started at            : 09/20/2019 05:05:04 PM
****************************************************************************************


 BO Penalty Resend Closed Communication Started at            : 09/20/2019 05:05:05 PM
****************************************

No Record Found for BO Vendor Closed Communication


 BO Penalty Closed Communication Ended at            : 09/20/2019 05:05:12 PM
****************************************


Record count          : 35

Email at 09/20/2019 05:06:12 PM:
Subject:Inbound discrepancy tracker wk 38has been created!
BCC:shrishc1@damcogroup.com; CC:; To:shrishc1@damcogroup.com



Report Successfully Generated

Sending mails to stock planner

Mails send Successfully

Ended at              : 09/20/2019 05:06:14 PM
****************************************************************************************

Started at            : 09/20/2019 05:15:37 PM
****************************************************************************************


 BO Penalty Resend Closed Communication Started at            : 09/20/2019 05:15:37 PM
****************************************

No Record Found for BO Vendor Closed Communication


 BO Penalty Closed Communication Ended at            : 09/20/2019 05:15:40 PM
****************************************


Record count          : 35
Object reference not set to an instance of an object.

Report Successfully Generated

Sending mails to stock planner

Mails send Successfully

Ended at              : 09/20/2019 05:15:48 PM
****************************************************************************************

Started at            : 09/20/2019 05:16:26 PM
****************************************************************************************


 BO Penalty Resend Closed Communication Started at            : 09/20/2019 05:16:26 PM
****************************************

No Record Found for BO Vendor Closed Communication


 BO Penalty Closed Communication Ended at            : 09/20/2019 05:16:31 PM
****************************************


Record count          : 35
Started at            : 09/20/2019 05:20:09 PM
****************************************************************************************


 BO Penalty Resend Closed Communication Started at            : 09/20/2019 05:20:09 PM
****************************************

No Record Found for BO Vendor Closed Communication


 BO Penalty Closed Communication Ended at            : 09/20/2019 05:20:13 PM
****************************************


Record count          : 35

Email at 09/20/2019 05:20:43 PM:
Subject:Inbound discrepancy tracker wk 38has been created!
BCC:shrishc1@damcogroup.com; CC:; To:shrishc1@damcogroup.com



Report Successfully Generated

Sending mails to stock planner

Mails send Successfully

Ended at              : 09/20/2019 05:20:50 PM
****************************************************************************************

Started at            : 09/20/2019 05:23:12 PM
****************************************************************************************


 BO Penalty Resend Closed Communication Started at            : 09/20/2019 05:23:13 PM
****************************************

No Record Found for BO Vendor Closed Communication


 BO Penalty Closed Communication Ended at            : 09/20/2019 05:23:18 PM
****************************************


Record count          : 35

Email at 09/20/2019 05:23:42 PM:
Subject:Inbound discrepancy tracker wk 38has been created!
BCC:shrishc1@damcogroup.com; CC:; To:shrishc1@damcogroup.com



Report Successfully Generated

Sending mails to stock planner

Mails send Successfully

Ended at              : 09/20/2019 05:23:43 PM
****************************************************************************************

Started at            : 09/20/2019 05:26:26 PM
****************************************************************************************


 BO Penalty Resend Closed Communication Started at            : 09/20/2019 05:26:26 PM
****************************************

No Record Found for BO Vendor Closed Communication


 BO Penalty Closed Communication Ended at            : 09/20/2019 05:26:30 PM
****************************************


Record count          : 35

Email at 09/20/2019 05:26:37 PM:
Subject:Inbound discrepancy tracker wk 38has been created!
BCC:shrishc1@damcogroup.com; CC:; To:shrishc1@damcogroup.com



Report Successfully Generated

Sending mails to stock planner

Mails send Successfully

Ended at              : 09/20/2019 05:26:38 PM
****************************************************************************************

Started at            : 09/20/2019 05:27:41 PM
****************************************************************************************


 BO Penalty Resend Closed Communication Started at            : 09/20/2019 05:27:41 PM
****************************************

No Record Found for BO Vendor Closed Communication


 BO Penalty Closed Communication Ended at            : 09/20/2019 05:27:46 PM
****************************************


Record count          : 35

Email at 09/20/2019 05:28:40 PM:
Subject:Inbound discrepancy tracker wk 38has been created!
BCC:shrishc1@damcogroup.com; CC:; To:shrishc1@damcogroup.com



Report Successfully Generated

Sending mails to stock planner

Mails send Successfully

Ended at              : 09/20/2019 05:28:43 PM
****************************************************************************************

