Started at            : 09/23/2019 11:10:11 AM
****************************************************************************************

Generate & send stock planner Discrepancy report failed at        : 09/23/2019 11:10:15 AM
****************************************************************************************

Ended at              : 09/23/2019 11:10:16 AM
****************************************************************************************

Started at            : 09/23/2019 11:10:46 AM
****************************************************************************************


Record count          : 35

Email at 09/23/2019 11:11:40 AM:
Subject:Inbound discrepancy tracker wk 39has been created!
BCC:shrishc1@damcogroup.com; CC:; To:shrishc1@damcogroup.com



Report Successfully Generated

Sending mails to stock planner

Mails send Successfully


Email at 09/23/2019 11:12:32 AM:
Subject:Inbound discrepancy tracker wk 39
BCC:shrishc1@damcogroup.com; CC:; To:sss@hhh.vvvf, jagnarains@damcogroup.com, jamie.haworth@officedepot.com, natasha.todd@officedepot.com, layla.hurst@officedepot.com, andrew.dangerfield@officedepot.com, heloise.johnson@officedepot.com, manjit.singh@officedepot.com, hilroy.benjamin@officedepot.com, martin.thompson@officedepot.com, dina.caetano@officedepot.com, nene.niare@officedepot.com, spdamco@sp.com, STKGER@OD.COM, p_predicator76@gmail.com


Ended at              : 09/23/2019 11:12:38 AM
****************************************************************************************

Started at            : 09/23/2019 11:30:43 AM
****************************************************************************************

Generate & send stock planner Discrepancy report failed at        : 09/23/2019 11:31:10 AM
****************************************************************************************

Ended at              : 09/23/2019 11:31:10 AM
****************************************************************************************

Started at            : 09/23/2019 11:31:22 AM
****************************************************************************************


Record count          : 35

Email at 09/23/2019 11:31:45 AM:
Subject:Inbound discrepancy tracker wk 39has been created!
BCC:shrishc1@damcogroup.com; CC:; To:shrishc1@damcogroup.com



Report Successfully Generated

Sending mails to stock planner

Mails send Successfully


Email at 09/23/2019 11:34:51 AM:
Subject:Inbound discrepancy tracker wk 39
BCC:shrishc1@damcogroup.com; CC:; To:sss@hhh.vvvf, jagnarains@damcogroup.com, jamie.haworth@officedepot.com, natasha.todd@officedepot.com, layla.hurst@officedepot.com, andrew.dangerfield@officedepot.com, heloise.johnson@officedepot.com, manjit.singh@officedepot.com, hilroy.benjamin@officedepot.com, martin.thompson@officedepot.com, dina.caetano@officedepot.com, nene.niare@officedepot.com, spdamco@sp.com, STKGER@OD.COM, p_predicator76@gmail.com


Ended at              : 09/23/2019 11:34:53 AM
****************************************************************************************

Started at            : 09/23/2019 11:38:09 AM
****************************************************************************************

Started at            : 09/23/2019 11:39:07 AM
****************************************************************************************

Started at            : 09/23/2019 11:39:24 AM
****************************************************************************************


Record count          : 35

Email at 09/23/2019 11:39:51 AM:
Subject:Inbound discrepancy tracker wk 39has been created!
BCC:shrishc1@damcogroup.com; CC:; To:shrishc1@damcogroup.com



Report Successfully Generated

Sending mails to stock planner

Mails send Successfully


Email at 09/23/2019 11:39:56 AM:
Subject:Inbound discrepancy tracker wk 39
BCC:shrishc1@damcogroup.com; CC:; To:sss@hhh.vvvf, jagnarains@damcogroup.com, jamie.haworth@officedepot.com, natasha.todd@officedepot.com, layla.hurst@officedepot.com, andrew.dangerfield@officedepot.com, heloise.johnson@officedepot.com, manjit.singh@officedepot.com, hilroy.benjamin@officedepot.com, martin.thompson@officedepot.com, dina.caetano@officedepot.com, nene.niare@officedepot.com, spdamco@sp.com, STKGER@OD.COM, p_predicator76@gmail.com


Ended at              : 09/23/2019 11:39:56 AM
****************************************************************************************

Started at            : 09/23/2019 01:24:39 PM
****************************************************************************************


Record count          : 35
Started at            : 09/23/2019 01:25:43 PM
****************************************************************************************


Record count          : 35
Started at            : 09/23/2019 01:29:05 PM
****************************************************************************************

Started at            : 09/23/2019 01:43:42 PM
****************************************************************************************


Record count          : 35

Report Successfully Generated

Sending mails to stock planner

Mails send Successfully

Ended at              : 09/23/2019 01:44:37 PM
****************************************************************************************

Started at            : 09/23/2019 01:45:55 PM
****************************************************************************************


Record count          : 35
Started at            : 09/23/2019 01:48:50 PM
****************************************************************************************


Record count          : 35

Email at 09/23/2019 01:49:23 PM:
Subject:Inbound discrepancy tracker wk 39 has been created!
BCC:shrishc1@damcogroup.com; CC:; To:shrishc1@damcogroup.com



Report Successfully Generated

Sending mails to stock planner

Mails send Successfully

Ended at              : 09/23/2019 01:49:26 PM
****************************************************************************************

Started at            : 09/23/2019 01:52:04 PM
****************************************************************************************


Email at 09/23/2019 01:52:07 PM:
Subject:Inbound discrepancy tracker wk 39
BCC:shrishc1@damcogroup.com; CC:; To:sss@hhh.vvvf, jagnarains@damcogroup.com, jamie.haworth@officedepot.com, natasha.todd@officedepot.com, layla.hurst@officedepot.com, andrew.dangerfield@officedepot.com, heloise.johnson@officedepot.com, manjit.singh@officedepot.com, hilroy.benjamin@officedepot.com, martin.thompson@officedepot.com, dina.caetano@officedepot.com, nene.niare@officedepot.com, spdamco@sp.com, STKGER@OD.COM, p_predicator76@gmail.com


Ended at              : 09/23/2019 01:52:07 PM
****************************************************************************************

