
Date              : 02/15/2022 10:30:18 AM
Error Source      : System
Error Message     : The SMTP server requires a secure connection or the client was not authenticated. The server response was: 5.7.0 Authentication required
Stack Information :    at System.Net.Mail.MailCommand.CheckResponse(SmtpStatusCode statusCode, String response)
   at System.Net.Mail.MailCommand.Send(SmtpConnection conn, Byte[] command, MailAddress from, Boolean allowUnicode)
   at System.Net.Mail.SmtpTransport.SendMail(MailAddress sender, MailAddressCollection recipients, String deliveryNotify, Boolean allowUnicode, SmtpFailedRecipientException& exception)
   at System.Net.Mail.SmtpClient.Send(MailMessage message)
   at Utilities.clsEmail.SendMailWithLogo() in E:\Office Depot\Source_Code\Source_Code_Stage7_V2\CommonUtilities\Utilities\clsEmail.cs:line 558




****************************************************************************************

Date              : 02/15/2022 10:34:19 AM
Error Source      : System
Error Message     : The SMTP server requires a secure connection or the client was not authenticated. The server response was: 5.7.0 Authentication required
Stack Information :    at System.Net.Mail.MailCommand.CheckResponse(SmtpStatusCode statusCode, String response)
   at System.Net.Mail.MailCommand.Send(SmtpConnection conn, Byte[] command, MailAddress from, Boolean allowUnicode)
   at System.Net.Mail.SmtpTransport.SendMail(MailAddress sender, MailAddressCollection recipients, String deliveryNotify, Boolean allowUnicode, SmtpFailedRecipientException& exception)
   at System.Net.Mail.SmtpClient.Send(MailMessage message)
   at Utilities.clsEmail.SendMailWithLogo() in E:\Office Depot\Source_Code\Source_Code_Stage7_V2\CommonUtilities\Utilities\clsEmail.cs:line 558




****************************************************************************************
